﻿"Station Name","WINNIPEG RICHARDSON INT'L A"
"Province","MANITOBA"
"Latitude","49.92"
"Longitude","-97.23"
"Elevation","238.70"
"Climate Identifier","5023222"
"WMO Identifier","71852"
"TC Identifier","YWG"

"Legend"
"A","Accumulated"
"C","Precipitation occurred, amount uncertain"
"E","Estimated"
"F","Accumulated and estimated"
"L","Precipitation may or may not have occurred"
"M","Missing"
"N","Temperature missing but known to be > 0"
"S","More than one occurrence"
"T","Trace"
"Y","Temperature missing but known to be < 0"
"[empty]","No data available"
"^","The value displayed is based on incomplete data"
"†","Data that is not subject to review by the National Climate Archives"

"Date/Time","Year","Month","Day","Data Quality","Max Temp (°C)","Max Temp Flag","Min Temp (°C)","Min Temp Flag","Mean Temp (°C)","Mean Temp Flag","Heat Deg Days (°C)","Heat Deg Days Flag","Cool Deg Days (°C)","Cool Deg Days Flag","Total Rain (mm)","Total Rain Flag","Total Snow (cm)","Total Snow Flag","Total Precip (mm)","Total Precip Flag","Snow on Grnd (cm)","Snow on Grnd Flag","Dir of Max Gust (10s deg)","Dir of Max Gust Flag","Spd of Max Gust (km/h)","Spd of Max Gust Flag"
"2003-01-01","2003","01","01","","-8.0","","-12.1","","-10.1","","28.1","","0.0","","0.0","","0.0","","0.0","","","","","","",""
"2003-01-02","2003","01","02","","-4.7","","-8.8","","-6.8","","24.8","","0.0","","0.0","","0.5","E","0.5","","","","","","",""
"2003-01-03","2003","01","03","","-1.9","","-5.9","","-3.9","","21.9","","0.0","","0.0","","0.5","E","0.5","","","","","","",""
"2003-01-04","2003","01","04","","-2.3","","-6.2","","-4.3","","22.3","","0.0","","0.0","","0.0","","0.0","","","","","","",""
"2003-01-05","2003","01","05","","-5.8","","-9.1","","-7.5","","25.5","","0.0","","0.0","","0.0","","0.0","","","","","","",""
"2003-01-06","2003","01","06","","1.8","","-10.0","","-4.1","","22.1","","0.0","","0.0","","0.0","","0.0","","","","","","",""
"2003-01-07","2003","01","07","","6.1","","-1.2","","2.5","","15.5","","0.0","","0.5","","0.0","","0.5","","","","","","",""
"2003-01-08","2003","01","08","","4.9","","-5.1","","-0.1","","18.1","","0.0","","0.0","","0.0","","0.0","","","","","","",""
"2003-01-09","2003","01","09","","-5.1","","-14.7","","-9.9","","27.9","","0.0","","0.0","","0.5","E","0.5","","","","","","",""
"2003-01-10","2003","01","10","","-14.5","","-21.8","","-18.2","","36.2","","0.0","","0.0","","0.0","","0.0","","","","","","",""
"2003-01-11","2003","01","11","","-18.1","","-24.1","","-21.1","","39.1","","0.0","","0.0","","0.0","","0.0","","","","","","",""
"2003-01-12","2003","01","12","","-17.3","","-23.6","","-20.5","","38.5","","0.0","","0.0","","0.0","","0.0","","","","","","",""
"2003-01-13","2003","01","13","","-17.1","","-25.8","","-21.5","","39.5","","0.0","","0.0","","0.0","","0.0","","","","","","",""
"2003-01-14","2003","01","14","","-17.4","","-23.7","","-20.6","","38.6","","0.0","","0.0","","0.0","","0.0","","","","","","",""
"2003-01-15","2003","01","15","","-9.6","","-21.8","","-15.7","","33.7","","0.0","","0.0","","0.0","","0.0","","","","","","",""
"2003-01-16","2003","01","16","","-12.8","","-21.7","","-17.3","","35.3","","0.0","","0.0","","0.0","","0.0","","","","","","",""
"2003-01-17","2003","01","17","","-6.1","","-21.5","","-13.8","","31.8","","0.0","","0.0","","3.0","E","3.0","","","","","","",""
"2003-01-18","2003","01","18","","-14.8","","-25.5","","-20.2","","38.2","","0.0","","0.0","","0.0","","0.0","","","","","","",""
"2003-01-19","2003","01","19","","-11.4","","-26.0","","-18.7","","36.7","","0.0","","0.0","","0.5","E","0.5","","","","","","",""
"2003-01-20","2003","01","20","","-20.2","","-28.5","","-24.4","","42.4","","0.0","","0.0","","0.0","","0.0","","","","","","",""
"2003-01-21","2003","01","21","","-19.8","","-28.0","","-23.9","","41.9","","0.0","","0.0","","0.0","","0.0","","","","","","",""
"2003-01-22","2003","01","22","","-24.6","","-34.2","","-29.4","","47.4","","0.0","","0.0","","0.0","","0.0","","","","","","",""
"2003-01-23","2003","01","23","","-22.1","","-33.9","","-28.0","","46.0","","0.0","","0.0","","0.0","","0.0","","","","","","",""
"2003-01-24","2003","01","24","","-16.2","","-25.9","","-21.1","","39.1","","0.0","","0.0","","1.0","E","1.0","","","","","","",""
"2003-01-25","2003","01","25","","-19.7","","-28.7","","-24.2","","42.2","","0.0","","0.0","","0.0","","0.0","","","","","","",""
"2003-01-26","2003","01","26","","-18.7","","-30.7","","-24.7","","42.7","","0.0","","0.0","","0.5","E","0.5","","","","","","",""
"2003-01-27","2003","01","27","","-7.7","","-18.7","","-13.2","","31.2","","0.0","","0.0","","4.0","E","4.0","","","","","","",""
"2003-01-28","2003","01","28","","-16.0","","-30.2","","-23.1","","41.1","","0.0","","0.0","","0.0","","0.0","","","","","","",""
"2003-01-29","2003","01","29","","-6.0","","-29.9","","-18.0","","36.0","","0.0","","0.0","","0.0","","0.0","","","","","","",""
"2003-01-30","2003","01","30","","-6.1","","-14.9","","-10.5","","28.5","","0.0","","0.0","","0.0","","0.0","","","","","","",""
"2003-01-31","2003","01","31","","-5.0","","-16.0","","-10.5","","28.5","","0.0","","0.0","","1.5","E","1.5","","","","","","",""
"2003-02-01","2003","02","01","","-4.1","","-7.1","","-5.6","","23.6","","0.0","","0.0","","2.0","E","2.0","","","","","","",""
"2003-02-02","2003","02","02","","-1.6","","-15.7","","-8.7","","26.7","","0.0","","0.0","","0.5","E","0.5","","","","","","",""
"2003-02-03","2003","02","03","","-13.7","","-27.1","","-20.4","","38.4","","0.0","","0.0","","0.0","","0.0","","","","","","",""
"2003-02-04","2003","02","04","","-16.8","","-31.8","","-24.3","","42.3","","0.0","","0.0","","0.0","T","0.0","T","","","","","",""
"2003-02-05","2003","02","05","","-16.0","","-28.8","","-22.4","","40.4","","0.0","","0.0","","0.0","T","0.0","T","","","","","",""
"2003-02-06","2003","02","06","","-19.8","","-33.5","","-26.7","","44.7","","0.0","","0.0","","0.0","","0.0","","","","","","",""
"2003-02-07","2003","02","07","","-6.5","","-20.5","","-13.5","","31.5","","0.0","","0.0","","0.0","T","0.0","T","","","","","",""
"2003-02-08","2003","02","08","","-19.6","","-28.5","","-24.1","","42.1","","0.0","","0.0","","0.0","","0.0","","","","","","",""
"2003-02-09","2003","02","09","","-17.7","","-32.2","","-25.0","","43.0","","0.0","","0.0","","0.5","E","0.5","","","","","","",""
"2003-02-10","2003","02","10","","-15.4","","-32.5","","-24.0","","42.0","","0.0","","0.0","","0.5","E","0.5","","","","","","",""
"2003-02-11","2003","02","11","","-15.5","","-25.5","","-20.5","","38.5","","0.0","","0.0","","1.0","E","1.0","","","","","","",""
"2003-02-12","2003","02","12","","-15.3","","-28.2","","-21.8","","39.8","","0.0","","0.0","","0.0","","0.0","","","","","","",""
"2003-02-13","2003","02","13","","-16.5","","-28.8","","-22.7","","40.7","","0.0","","0.0","","0.0","T","0.0","T","","","","","",""
"2003-02-14","2003","02","14","","-16.2","","-34.4","","-25.3","","43.3","","0.0","","0.0","","0.5","E","0.5","","","","","","",""
"2003-02-15","2003","02","15","","-14.5","","-36.0","","-25.3","","43.3","","0.0","","0.0","","0.0","T","0.0","T","","","","","",""
"2003-02-16","2003","02","16","","-3.4","","-14.9","","-9.2","","27.2","","0.0","","0.0","","1.0","E","1.0","","","","","","",""
"2003-02-17","2003","02","17","","-5.9","","-8.8","","-7.4","","25.4","","0.0","","0.0","","0.0","T","0.0","T","","","","","",""
"2003-02-18","2003","02","18","","-8.7","","-15.4","","-12.1","","30.1","","0.0","","0.0","","3.0","E","3.0","","","","","","",""
"2003-02-19","2003","02","19","","-4.1","","-14.0","","-9.1","","27.1","","0.0","","0.0","","0.0","","0.0","","","","","","",""
"2003-02-20","2003","02","20","","-9.4","","-21.1","","-15.3","","33.3","","0.0","","0.0","","0.5","E","0.5","","","","","","",""
"2003-02-21","2003","02","21","","-20.0","","-30.7","","-25.4","","43.4","","0.0","","0.0","","0.5","E","0.5","","","","","","",""
"2003-02-22","2003","02","22","","-20.8","","-33.8","","-27.3","","45.3","","0.0","","0.0","","0.0","","0.0","","","","","","",""
"2003-02-23","2003","02","23","","-20.4","","-33.5","","-27.0","","45.0","","0.0","","0.0","","0.0","","0.0","","","","","","",""
"2003-02-24","2003","02","24","","-21.3","","-35.9","","-28.6","","46.6","","0.0","","0.0","","0.0","","0.0","","","","","","",""
"2003-02-25","2003","02","25","","-14.2","","-26.2","","-20.2","","38.2","","0.0","","0.0","","0.0","","0.0","","","","","","",""
"2003-02-26","2003","02","26","","-8.3","","-29.6","","-19.0","","37.0","","0.0","","0.0","","0.0","","0.0","","","","","","",""
"2003-02-27","2003","02","27","","-10.0","","-23.9","","-17.0","","35.0","","0.0","","0.0","","0.0","","0.0","","","","","","",""
"2003-02-28","2003","02","28","","-7.7","","-20.5","","-14.1","","32.1","","0.0","","0.0","","0.5","E","0.5","","","","","","",""
"2003-03-01","2003","03","01","","-7.9","","-32.8","","-20.4","","38.4","","0.0","","0.0","","1.5","E","1.5","","","M","","","",""
"2003-03-02","2003","03","02","","-21.2","","-37.4","","-29.3","","47.3","","0.0","","0.0","","0.0","","0.0","","","M","","","",""
"2003-03-03","2003","03","03","","-16.4","","-28.9","","-22.7","","40.7","","0.0","","0.0","","2.5","E","2.5","","","M","","","",""
"2003-03-04","2003","03","04","","-18.7","","-30.5","","-24.6","","42.6","","0.0","","0.0","","0.0","","0.0","","","M","","","",""
"2003-03-05","2003","03","05","","-11.6","","-30.5","","-21.1","","39.1","","0.0","","0.0","","0.5","E","0.5","","","M","","","",""
"2003-03-06","2003","03","06","","-11.0","","-28.3","","-19.7","","37.7","","0.0","","0.0","","3.0","E","3.0","","","M","","","",""
"2003-03-07","2003","03","07","","-18.7","","-32.6","","-25.7","","43.7","","0.0","","0.0","","0.0","","0.0","","","M","","","",""
"2003-03-08","2003","03","08","","-19.4","","-34.6","","-27.0","","45.0","","0.0","","0.0","","0.0","","0.0","","","M","","","",""
"2003-03-09","2003","03","09","","-16.4","","-24.4","","-20.4","","38.4","","0.0","","0.0","","0.0","","0.0","","","M","","","",""
"2003-03-10","2003","03","10","","-13.5","","-25.9","","-19.7","","37.7","","0.0","","0.0","","0.0","","0.0","","","M","","","",""
"2003-03-11","2003","03","11","","-10.7","","-21.9","","-16.3","","34.3","","0.0","","0.0","","1.0","E","1.0","","","M","","","",""
"2003-03-12","2003","03","12","","-11.1","","-25.5","","-18.3","","36.3","","0.0","","0.0","","0.0","","0.0","","","M","","","",""
"2003-03-13","2003","03","13","","-0.8","","-20.2","","-10.5","","28.5","","0.0","","0.0","","1.0","E","1.0","","","M","","","",""
"2003-03-14","2003","03","14","","5.7","","-3.3","","1.2","","16.8","","0.0","","0.0","","0.0","","0.0","","","M","","","",""
"2003-03-15","2003","03","15","","3.7","","-4.6","","-0.5","","18.5","","0.0","","0.0","","0.0","","0.0","","","M","","","",""
"2003-03-16","2003","03","16","","-0.1","","-5.4","","-2.8","","20.8","","0.0","","0.0","T","0.0","","0.0","T","","M","","","",""
"2003-03-17","2003","03","17","","4.2","","-3.1","","0.6","","17.4","","0.0","","0.0","","0.0","","0.0","","","M","","","",""
"2003-03-18","2003","03","18","","1.6","","-5.2","","-1.8","","19.8","","0.0","","0.0","","0.0","","0.0","","","M","","","",""
"2003-03-19","2003","03","19","","4.8","","-0.8","","2.0","","16.0","","0.0","","0.0","","0.0","","0.0","","","M","","","",""
"2003-03-20","2003","03","20","","4.2","","-1.2","","1.5","","16.5","","0.0","","1.0","","0.5","E","1.5","","","M","","","",""
"2003-03-21","2003","03","21","","8.9","","-3.2","","2.9","","15.1","","0.0","","0.0","","0.0","","0.0","","","M","","","",""
"2003-03-22","2003","03","22","","15.2","","-3.2","","6.0","","12.0","","0.0","","0.0","","0.0","","0.0","","","M","","","",""
"2003-03-23","2003","03","23","","11.0","","-1.6","","4.7","","13.3","","0.0","","0.0","T","0.0","","0.0","T","","M","","","",""
"2003-03-24","2003","03","24","","4.8","","0.8","","2.8","","15.2","","0.0","","1.0","","0.0","","1.0","","","M","","","",""
"2003-03-25","2003","03","25","","2.5","","-3.2","","-0.4","","18.4","","0.0","","0.0","","0.0","T","0.0","T","","M","","","",""
"2003-03-26","2003","03","26","","6.6","","-4.7","","1.0","","17.0","","0.0","","0.0","","0.0","","0.0","","","M","","","",""
"2003-03-27","2003","03","27","","5.4","","-5.9","","-0.3","","18.3","","0.0","","0.0","","0.0","","0.0","","","M","","","",""
"2003-03-28","2003","03","28","","5.9","","-8.4","","-1.3","","19.3","","0.0","","0.0","","0.0","","0.0","","","M","","","",""
"2003-03-29","2003","03","29","","1.7","","-6.5","","-2.4","","20.4","","0.0","","0.0","","0.0","","0.0","","","M","","","",""
"2003-03-30","2003","03","30","","4.8","","-3.1","","0.9","","17.1","","0.0","","0.0","","0.0","T","0.0","T","","M","","","",""
"2003-03-31","2003","03","31","","13.8","","-0.1","","6.9","","11.1","","0.0","","6.5","","0.0","T","6.5","","0","","","","",""
"2003-04-01","2003","04","01","","0.2","","-5.4","","-2.6","","20.6","","0.0","","0.0","","0.0","","0.0","","","M","","","",""
"2003-04-02","2003","04","02","","0.2","","-7.4","","-3.6","","21.6","","0.0","","0.0","","0.0","","0.0","","","M","","","",""
"2003-04-03","2003","04","03","","-2.4","","-7.0","","-4.7","","22.7","","0.0","","0.0","","3.5","E","3.5","","","M","","","",""
"2003-04-04","2003","04","04","","-4.9","","-11.8","","-8.4","","26.4","","0.0","","0.0","","2.5","E","2.5","","","M","","","",""
"2003-04-05","2003","04","05","","-1.0","","-11.4","","-6.2","","24.2","","0.0","","0.0","","0.0","","0.0","","","M","","","",""
"2003-04-06","2003","04","06","","6.2","","-6.6","","-0.2","","18.2","","0.0","","0.0","","0.0","","0.0","","","M","","","",""
"2003-04-07","2003","04","07","","8.2","","-2.1","","3.1","","14.9","","0.0","","0.0","","0.0","","0.0","","","M","","","",""
"2003-04-08","2003","04","08","","14.4","","-0.4","","7.0","","11.0","","0.0","","0.0","","0.0","","0.0","","","M","","","",""
"2003-04-09","2003","04","09","","24.9","","1.8","","13.4","","4.6","","0.0","","0.0","","0.0","","0.0","","","M","","","",""
"2003-04-10","2003","04","10","","16.4","","-0.2","","8.1","","9.9","","0.0","","0.0","","0.0","","0.0","","","M","","","",""
"2003-04-11","2003","04","11","","14.4","","-3.7","","5.4","","12.6","","0.0","","0.0","","0.0","","0.0","","","M","","","",""
"2003-04-12","2003","04","12","","20.2","","1.4","","10.8","","7.2","","0.0","","0.0","","0.0","","0.0","","","M","","","",""
"2003-04-13","2003","04","13","","25.7","","6.2","","16.0","","2.0","","0.0","","0.0","","0.0","","0.0","","","M","","","",""
"2003-04-14","2003","04","14","","12.5","","0.8","","6.7","","11.3","","0.0","","0.0","","0.0","","0.0","","","M","","","",""
"2003-04-15","2003","04","15","","10.9","","-2.1","","4.4","","13.6","","0.0","","0.0","","0.0","","0.0","","","M","","","",""
"2003-04-16","2003","04","16","","9.5","","-2.5","","3.5","","14.5","","0.0","","0.0","","0.0","","0.0","","","M","","","",""
"2003-04-17","2003","04","17","","3.4","","-2.8","","0.3","","17.7","","0.0","","0.0","","9.5","E","9.5","","","M","","","",""
"2003-04-18","2003","04","18","","14.5","","-2.8","","5.9","","12.1","","0.0","","0.0","","0.0","","0.0","","","M","","","",""
"2003-04-19","2003","04","19","","19.5","","-0.3","","9.6","","8.4","","0.0","","0.0","","0.0","","0.0","","","M","","","",""
"2003-04-20","2003","04","20","","19.4","","0.3","","9.9","","8.1","","0.0","","0.0","","0.0","","0.0","","0","","","","",""
"2003-04-21","2003","04","21","","18.3","","-4.9","","6.7","","11.3","","0.0","","0.0","","0.0","","0.0","","0","","","","",""
"2003-04-22","2003","04","22","","19.9","","-1.2","","9.4","","8.6","","0.0","","0.0","","0.0","","0.0","","0","","","","",""
"2003-04-23","2003","04","23","","23.9","","2.8","","13.4","","4.6","","0.0","","0.0","","0.0","","0.0","","0","","","","",""
"2003-04-24","2003","04","24","","19.3","","9.6","","14.5","","3.5","","0.0","","0.0","T","0.0","","0.0","T","0","","","","",""
"2003-04-25","2003","04","25","","16.6","","2.4","","9.5","","8.5","","0.0","","0.0","T","0.0","","0.0","T","0","","","","",""
"2003-04-26","2003","04","26","","20.5","","1.9","","11.2","","6.8","","0.0","","0.0","","0.0","","0.0","","0","","","","",""
"2003-04-27","2003","04","27","","13.0","","0.1","","6.6","","11.4","","0.0","","17.5","","0.0","T","17.5","","0","","","","",""
"2003-04-28","2003","04","28","","10.3","","-5.9","","2.2","","15.8","","0.0","","0.0","","0.0","","0.0","","0","","","","",""
"2003-04-29","2003","04","29","","11.1","","-9.2","","1.0","","17.0","","0.0","","0.0","","0.0","","0.0","","0","","","","",""
"2003-04-30","2003","04","30","","18.8","","0.0","","9.4","","8.6","","0.0","","0.0","","0.0","","0.0","","0","","","","",""
"2003-05-01","2003","05","01","","13.3","","-6.6","","3.4","","14.6","","0.0","","0.0","","0.0","","0.0","","0","","","","",""
"2003-05-02","2003","05","02","","22.2","","2.0","","12.1","","5.9","","0.0","","0.0","","0.0","","0.0","","0","","","","",""
"2003-05-03","2003","05","03","","21.6","","5.9","","13.8","","4.2","","0.0","","0.0","","0.0","","0.0","","0","","","","",""
"2003-05-04","2003","05","04","","18.5","","8.4","","13.5","","4.5","","0.0","","1.5","","0.0","","1.5","","0","","","","",""
"2003-05-05","2003","05","05","","22.6","","3.1","","12.9","","5.1","","0.0","","0.0","","0.0","","0.0","","0","","","","",""
"2003-05-06","2003","05","06","","20.9","","1.1","","11.0","","7.0","","0.0","","2.0","","0.0","","2.0","","0","","","","",""
"2003-05-07","2003","05","07","","20.2","","7.8","","14.0","","4.0","","0.0","","1.0","","0.0","","1.0","","0","","","","",""
"2003-05-08","2003","05","08","","19.5","","11.4","","15.5","","2.5","","0.0","","0.5","","0.0","","0.5","","0","","","","",""
"2003-05-09","2003","05","09","","14.8","","6.8","","10.8","","7.2","","0.0","","0.0","T","0.0","","0.0","T","0","","","","",""
"2003-05-10","2003","05","10","","13.4","","3.3","","8.4","","9.6","","0.0","","4.0","","0.0","","4.0","","0","","","","",""
"2003-05-11","2003","05","11","","17.5","","-0.2","","8.7","","9.3","","0.0","","0.0","","0.0","","0.0","","0","","","","",""
"2003-05-12","2003","05","12","","20.5","","-3.9","","8.3","","9.7","","0.0","","0.0","","0.0","","0.0","","0","","","","",""
"2003-05-13","2003","05","13","","22.6","","1.3","","12.0","","6.0","","0.0","","0.0","","0.0","","0.0","","0","","","","",""
"2003-05-14","2003","05","14","","26.2","","3.7","","15.0","","3.0","","0.0","","0.0","","0.0","","0.0","","0","","","","",""
"2003-05-15","2003","05","15","","26.5","","6.4","","16.5","","1.5","","0.0","","0.0","","0.0","","0.0","","0","","","","",""
"2003-05-16","2003","05","16","","25.5","","9.3","","17.4","","0.6","","0.0","","4.0","","0.0","","4.0","","0","","","","",""
"2003-05-17","2003","05","17","","19.8","","10.1","","15.0","","3.0","","0.0","","3.5","","0.0","","3.5","","0","","","","",""
"2003-05-18","2003","05","18","","14.2","","3.0","","8.6","","9.4","","0.0","","39.5","","0.0","","39.5","","0","","","","",""
"2003-05-19","2003","05","19","","10.9","","0.2","","5.6","","12.4","","0.0","","0.0","T","0.0","","0.0","T","0","","","","",""
"2003-05-20","2003","05","20","","19.9","","-2.4","","8.8","","9.2","","0.0","","0.5","","0.0","","0.5","","0","","","","",""
"2003-05-21","2003","05","21","","20.3","","6.4","","13.4","","4.6","","0.0","","0.0","T","0.0","","0.0","T","0","","","","",""
"2003-05-22","2003","05","22","","21.6","","4.2","","12.9","","5.1","","0.0","","0.0","","0.0","","0.0","","0","","","","",""
"2003-05-23","2003","05","23","","21.7","","7.5","","14.6","","3.4","","0.0","","2.5","","0.0","","2.5","","0","","","","",""
"2003-05-24","2003","05","24","","19.1","","7.5","","13.3","","4.7","","0.0","","2.0","","0.0","","2.0","","0","","","","",""
"2003-05-25","2003","05","25","","23.7","","3.4","","13.6","","4.4","","0.0","","0.0","","0.0","","0.0","","0","","","","",""
"2003-05-26","2003","05","26","","26.4","","7.6","","17.0","","1.0","","0.0","","0.0","","0.0","","0.0","","0","","","","",""
"2003-05-27","2003","05","27","","26.6","","9.0","","17.8","","0.2","","0.0","","2.0","","0.0","","2.0","","0","","","","",""
"2003-05-28","2003","05","28","","26.7","","6.5","","16.6","","1.4","","0.0","","0.0","","0.0","","0.0","","0","","","","",""
"2003-05-29","2003","05","29","","27.5","","13.2","","20.4","","0.0","","2.4","","6.5","","0.0","","6.5","","0","","","","",""
"2003-05-30","2003","05","30","","16.0","","5.1","","10.6","","7.4","","0.0","","9.0","","0.0","","9.0","","0","","","","",""
"2003-05-31","2003","05","31","","19.7","","1.2","","10.5","","7.5","","0.0","","0.0","","0.0","","0.0","","0","","","","",""
"2003-06-01","2003","06","01","","23.5","","4.6","","14.1","","3.9","","0.0","","0.0","","0.0","","0.0","","0","","","","",""
"2003-06-02","2003","06","02","","24.3","","5.8","","15.1","","2.9","","0.0","","0.0","","0.0","","0.0","","0","","","","",""
"2003-06-03","2003","06","03","","22.3","","11.9","","17.1","","0.9","","0.0","","0.0","","0.0","","0.0","","0","","","","",""
"2003-06-04","2003","06","04","","21.9","","10.8","","16.4","","1.6","","0.0","","0.0","","0.0","","0.0","","0","","","","",""
"2003-06-05","2003","06","05","","22.5","","11.2","","16.9","","1.1","","0.0","","0.0","","0.0","","0.0","","0","","","","",""
"2003-06-06","2003","06","06","","22.5","","8.0","","15.3","","2.7","","0.0","","3.5","","0.0","","3.5","","0","","","","",""
"2003-06-07","2003","06","07","","16.7","","9.5","","13.1","","4.9","","0.0","","0.5","","0.0","","0.5","","0","","","","",""
"2003-06-08","2003","06","08","","18.9","","4.8","","11.9","","6.1","","0.0","","0.0","","0.0","","0.0","","0","","","","",""
"2003-06-09","2003","06","09","","14.8","","2.3","","8.6","","9.4","","0.0","","3.0","","0.0","","3.0","","0","","","","",""
"2003-06-10","2003","06","10","","21.7","","3.5","","12.6","","5.4","","0.0","","0.0","","0.0","","0.0","","0","","","","",""
"2003-06-11","2003","06","11","","24.1","","6.9","","15.5","","2.5","","0.0","","0.5","","0.0","","0.5","","0","","","","",""
"2003-06-12","2003","06","12","","22.3","","12.2","","17.3","","0.7","","0.0","","2.5","","0.0","","2.5","","0","","","","",""
"2003-06-13","2003","06","13","","26.1","","7.5","","16.8","","1.2","","0.0","","0.0","","0.0","","0.0","","0","","","","",""
"2003-06-14","2003","06","14","","27.4","","9.1","","18.3","","0.0","","0.3","","0.0","","0.0","","0.0","","0","","","","",""
"2003-06-15","2003","06","15","","30.3","","17.4","","23.9","","0.0","","5.9","","3.5","","0.0","","3.5","","0","","","","",""
"2003-06-16","2003","06","16","","27.5","","14.9","","21.2","","0.0","","3.2","","0.0","","0.0","","0.0","","0","","","","",""
"2003-06-17","2003","06","17","","28.9","","10.0","","19.5","","0.0","","1.5","","0.0","","0.0","","0.0","","0","","","","",""
"2003-06-18","2003","06","18","","25.3","","6.7","","16.0","","2.0","","0.0","","0.0","","0.0","","0.0","","0","","","","",""
"2003-06-19","2003","06","19","","27.3","","8.1","","17.7","","0.3","","0.0","","0.0","","0.0","","0.0","","0","","","","",""
"2003-06-20","2003","06","20","","29.4","","16.1","","22.8","","0.0","","4.8","","0.0","","0.0","","0.0","","0","","","","",""
"2003-06-21","2003","06","21","","29.2","","17.2","","23.2","","0.0","","5.2","","7.0","","0.0","","7.0","","0","","","","",""
"2003-06-22","2003","06","22","","24.3","","11.4","","17.9","","0.1","","0.0","","0.0","","0.0","","0.0","","0","","","","",""
"2003-06-23","2003","06","23","","26.1","","10.4","","18.3","","0.0","","0.3","","0.0","","0.0","","0.0","","0","","","","",""
"2003-06-24","2003","06","24","","21.6","","11.9","","16.8","","1.2","","0.0","","0.5","","0.0","","0.5","","0","","","","",""
"2003-06-25","2003","06","25","","15.8","","10.6","","13.2","","4.8","","0.0","","17.0","","0.0","","17.0","","0","","","","",""
"2003-06-26","2003","06","26","","19.5","","8.0","","13.8","","4.2","","0.0","","1.0","","0.0","","1.0","","0","","","","",""
"2003-06-27","2003","06","27","","21.9","","6.3","","14.1","","3.9","","0.0","","0.5","","0.0","","0.5","","0","","","","",""
"2003-06-28","2003","06","28","","20.3","","10.7","","15.5","","2.5","","0.0","","3.0","","0.0","","3.0","","0","","","","",""
"2003-06-29","2003","06","29","","24.8","","9.7","","17.3","","0.7","","0.0","","0.0","","0.0","","0.0","","0","","","","",""
"2003-06-30","2003","06","30","","28.3","","11.7","","20.0","","0.0","","2.0","","0.0","","0.0","","0.0","","0","","","","",""
"2003-07-01","2003","07","01","","30.6","","17.7","","24.2","","0.0","","6.2","","0.0","","0.0","","0.0","","0","","","","",""
"2003-07-02","2003","07","02","","27.6","","16.8","","22.2","","0.0","","4.2","","0.0","","0.0","","0.0","","0","","","","",""
"2003-07-03","2003","07","03","","26.0","","16.9","","21.5","","0.0","","3.5","","0.0","","0.0","","0.0","","0","","","","",""
"2003-07-04","2003","07","04","","25.6","","14.6","","20.1","","0.0","","2.1","","0.0","","0.0","","0.0","","0","","","","",""
"2003-07-05","2003","07","05","","26.8","","11.4","","19.1","","0.0","","1.1","","0.0","","0.0","","0.0","","0","","","","",""
"2003-07-06","2003","07","06","","24.2","","14.7","","19.5","","0.0","","1.5","","6.5","","0.0","","6.5","","0","","","","",""
"2003-07-07","2003","07","07","","20.4","","8.9","","14.7","","3.3","","0.0","","5.0","","0.0","","5.0","","0","","","","",""
"2003-07-08","2003","07","08","","19.7","","5.7","","12.7","","5.3","","0.0","","0.0","","0.0","","0.0","","0","","","","",""
"2003-07-09","2003","07","09","","20.0","","10.3","","15.2","","2.8","","0.0","","0.5","","0.0","","0.5","","0","","","","",""
"2003-07-10","2003","07","10","","22.7","","10.3","","16.5","","1.5","","0.0","","0.0","","0.0","","0.0","","0","","","","",""
"2003-07-11","2003","07","11","","23.9","","13.5","","18.7","","0.0","","0.7","","6.0","","0.0","","6.0","","0","","","","",""
"2003-07-12","2003","07","12","","27.8","","11.4","","19.6","","0.0","","1.6","","0.0","","0.0","","0.0","","0","","","","",""
"2003-07-13","2003","07","13","","31.2","","16.8","","24.0","","0.0","","6.0","","0.0","","0.0","","0.0","","0","","","","",""
"2003-07-14","2003","07","14","","23.3","","13.5","","18.4","","0.0","","0.4","","9.0","","0.0","","9.0","","0","","","","",""
"2003-07-15","2003","07","15","","25.9","","9.5","","17.7","","0.3","","0.0","","0.0","","0.0","","0.0","","0","","","","",""
"2003-07-16","2003","07","16","","24.2","","11.3","","17.8","","0.2","","0.0","","0.5","","0.0","","0.5","","0","","","","",""
"2003-07-17","2003","07","17","","25.2","","8.2","","16.7","","1.3","","0.0","","0.0","","0.0","","0.0","","0","","","","",""
"2003-07-18","2003","07","18","","28.2","","14.5","","21.4","","0.0","","3.4","","9.0","","0.0","","9.0","","0","","","","",""
"2003-07-19","2003","07","19","","29.4","","13.8","","21.6","","0.0","","3.6","","0.0","T","0.0","","0.0","T","0","","","","",""
"2003-07-20","2003","07","20","","25.0","","12.8","","18.9","","0.0","","0.9","","3.0","","0.0","","3.0","","0","","","","",""
"2003-07-21","2003","07","21","","24.4","","10.0","","17.2","","0.8","","0.0","","0.0","","0.0","","0.0","","0","","","","",""
"2003-07-22","2003","07","22","","26.5","","9.5","","18.0","","0.0","","0.0","","0.0","","0.0","","0.0","","0","","","","",""
"2003-07-23","2003","07","23","","28.5","","14.1","","21.3","","0.0","","3.3","","0.0","","0.0","","0.0","","0","","","","",""
"2003-07-24","2003","07","24","","29.6","","16.7","","23.2","","0.0","","5.2","","1.0","","0.0","","1.0","","0","","","","",""
"2003-07-25","2003","07","25","","28.7","","16.4","","22.6","","0.0","","4.6","","0.0","","0.0","","0.0","","0","","","","",""
"2003-07-26","2003","07","26","","27.5","","13.1","","20.3","","0.0","","2.3","","0.0","","0.0","","0.0","","0","","","","",""
"2003-07-27","2003","07","27","","27.7","","9.3","","18.5","","0.0","","0.5","","0.0","","0.0","","0.0","","0","","","","",""
"2003-07-28","2003","07","28","","31.8","","16.1","","24.0","","0.0","","6.0","","0.0","","0.0","","0.0","","0","","","","",""
"2003-07-29","2003","07","29","","27.2","","15.1","","21.2","","0.0","","3.2","","1.0","","0.0","","1.0","","0","","","","",""
"2003-07-30","2003","07","30","","24.2","","12.6","","18.4","","0.0","","0.4","","2.0","","0.0","","2.0","","0","","","","",""
"2003-07-31","2003","07","31","","24.3","","9.0","","16.7","","1.3","","0.0","","1.0","","0.0","","1.0","","0","","","","",""
"2003-08-01","2003","08","01","","26.7","","12.6","","19.7","","0.0","","1.7","","0.0","","0.0","","0.0","","0","","","","",""
"2003-08-02","2003","08","02","","27.7","","11.6","","19.7","","0.0","","1.7","","0.0","","0.0","","0.0","","0","","","","",""
"2003-08-03","2003","08","03","","26.1","","11.8","","19.0","","0.0","","1.0","","0.0","","0.0","","0.0","","0","","","","",""
"2003-08-04","2003","08","04","","27.1","","14.7","","20.9","","0.0","","2.9","","1.0","","0.0","","1.0","","0","","","","",""
"2003-08-05","2003","08","05","","25.0","","17.8","","21.4","","0.0","","3.4","","10.5","","0.0","","10.5","","0","","","","",""
"2003-08-06","2003","08","06","","27.5","","12.1","","19.8","","0.0","","1.8","","0.0","","0.0","","0.0","","0","","","","",""
"2003-08-07","2003","08","07","","30.6","","14.2","","22.4","","0.0","","4.4","","0.0","","0.0","","0.0","","0","","","","",""
"2003-08-08","2003","08","08","","32.5","","18.5","","25.5","","0.0","","7.5","","0.0","","0.0","","0.0","","0","","","","",""
"2003-08-09","2003","08","09","","27.5","","16.0","","21.8","","0.0","","3.8","","0.0","T","0.0","","0.0","T","0","","","","",""
"2003-08-10","2003","08","10","","29.2","","15.7","","22.5","","0.0","","4.5","","0.0","","0.0","","0.0","","0","","","","",""
"2003-08-11","2003","08","11","","32.0","","18.0","","25.0","","0.0","","7.0","","0.0","","0.0","","0.0","","0","","","","",""
"2003-08-12","2003","08","12","","29.9","","19.5","","24.7","","0.0","","6.7","","0.0","","0.0","","0.0","","0","","","","",""
"2003-08-13","2003","08","13","","31.7","","18.4","","25.1","","0.0","","7.1","","0.0","","0.0","","0.0","","0","","","","",""
"2003-08-14","2003","08","14","","35.3","","20.0","","27.7","","0.0","","9.7","","0.0","","0.0","","0.0","","0","","","","",""
"2003-08-15","2003","08","15","","34.8","","16.4","","25.6","","0.0","","7.6","","0.0","","0.0","","0.0","","0","","","","",""
"2003-08-16","2003","08","16","","33.2","","11.4","","22.3","","0.0","","4.3","","0.0","","0.0","","0.0","","0","","","","",""
"2003-08-17","2003","08","17","","35.5","","18.1","","26.8","","0.0","","8.8","","0.0","","0.0","","0.0","","0","","","","",""
"2003-08-18","2003","08","18","","33.1","","21.2","","27.2","","0.0","","9.2","","0.0","","0.0","","0.0","","0","","","","",""
"2003-08-19","2003","08","19","","35.9","","18.3","","27.1","","0.0","","9.1","","0.0","","0.0","","0.0","","0","","","","",""
"2003-08-20","2003","08","20","","33.2","","19.2","","26.2","","0.0","","8.2","","5.5","","0.0","","5.5","","0","","","","",""
"2003-08-21","2003","08","21","","27.5","","13.1","","20.3","","0.0","","2.3","","0.0","T","0.0","","0.0","T","0","","","","",""
"2003-08-22","2003","08","22","","29.3","","9.2","","19.3","","0.0","","1.3","","0.5","","0.0","","0.5","","0","","","","",""
"2003-08-23","2003","08","23","","29.4","","18.1","","23.8","","0.0","","5.8","","0.5","","0.0","","0.5","","0","","","","",""
"2003-08-24","2003","08","24","","29.8","","17.8","","23.8","","0.0","","5.8","","0.0","","0.0","","0.0","","0","","","","",""
"2003-08-25","2003","08","25","","29.5","","11.4","","20.5","","0.0","","2.5","","1.5","","0.0","","1.5","","0","","","","",""
"2003-08-26","2003","08","26","","23.6","","8.6","","16.1","","1.9","","0.0","","0.5","","0.0","","0.5","","0","","","","",""
"2003-08-27","2003","08","27","","19.5","","4.7","","12.1","","5.9","","0.0","","47.5","","0.0","","47.5","","0","","","","",""
"2003-08-28","2003","08","28","","13.8","","9.6","","11.7","","6.3","","0.0","","4.0","","0.0","","4.0","","0","","","","",""
"2003-08-29","2003","08","29","","20.4","","6.1","","13.3","","4.7","","0.0","","0.5","","0.0","","0.5","","0","","","","",""
"2003-08-30","2003","08","30","","24.3","","9.6","","17.0","","1.0","","0.0","","0.0","","0.0","","0.0","","0","","","","",""
"2003-08-31","2003","08","31","","27.3","","13.9","","20.6","","0.0","","2.6","","0.0","","0.0","","0.0","","0","","","","",""
"2003-09-01","2003","09","01","","27.1","","9.8","","18.5","","0.0","","0.5","","0.0","T","0.0","","0.0","T","0","","","","",""
"2003-09-02","2003","09","02","","22.2","","12.2","","17.2","","0.8","","0.0","","2.5","","0.0","","2.5","","0","","","","",""
"2003-09-03","2003","09","03","","20.0","","6.5","","13.3","","4.7","","0.0","","0.0","","0.0","","0.0","","0","","","","",""
"2003-09-04","2003","09","04","","25.4","","4.9","","15.2","","2.8","","0.0","","0.0","","0.0","","0.0","","0","","","","",""
"2003-09-05","2003","09","05","","26.1","","11.4","","18.8","","0.0","","0.8","","0.0","","0.0","","0.0","","0","","","","",""
"2003-09-06","2003","09","06","","27.3","","8.3","","17.8","","0.2","","0.0","","0.0","","0.0","","0.0","","0","","","","",""
"2003-09-07","2003","09","07","","29.1","","12.8","","21.0","","0.0","","3.0","","0.0","","0.0","","0.0","","0","","","","",""
"2003-09-08","2003","09","08","","30.8","","18.3","","24.6","","0.0","","6.6","","0.0","","0.0","","0.0","","0","","","","",""
"2003-09-09","2003","09","09","","27.6","","18.7","","23.2","","0.0","","5.2","","0.0","T","0.0","","0.0","T","0","","","","",""
"2003-09-10","2003","09","10","","22.0","","17.6","","19.8","","0.0","","1.8","","12.5","","0.0","","12.5","","0","","","","",""
"2003-09-11","2003","09","11","","22.0","","13.2","","17.6","","0.4","","0.0","","1.5","","0.0","","1.5","","0","","","","",""
"2003-09-12","2003","09","12","","21.9","","12.1","","17.0","","1.0","","0.0","","1.0","","0.0","","1.0","","0","","","","",""
"2003-09-13","2003","09","13","","20.1","","10.1","","15.1","","2.9","","0.0","","0.5","","0.0","","0.5","","0","","","","",""
"2003-09-14","2003","09","14","","14.6","","6.9","","10.8","","7.2","","0.0","","0.5","","0.0","","0.5","","0","","","","",""
"2003-09-15","2003","09","15","","19.7","","4.7","","12.2","","5.8","","0.0","","0.0","","0.0","","0.0","","0","","","","",""
"2003-09-16","2003","09","16","","19.2","","6.9","","13.1","","4.9","","0.0","","0.0","","0.0","","0.0","","0","","","","",""
"2003-09-17","2003","09","17","","16.6","","9.9","","13.3","","4.7","","0.0","","6.0","","0.0","","6.0","","0","","","","",""
"2003-09-18","2003","09","18","","12.1","","7.0","","9.6","","8.4","","0.0","","2.5","","0.0","","2.5","","0","","","","",""
"2003-09-19","2003","09","19","","14.7","","4.5","","9.6","","8.4","","0.0","","0.0","","0.0","","0.0","","0","","","","",""
"2003-09-20","2003","09","20","","15.6","","5.3","","10.5","","7.5","","0.0","","1.0","","0.0","","1.0","","0","","","","",""
"2003-09-21","2003","09","21","","13.0","","6.4","","9.7","","8.3","","0.0","","1.0","","0.0","","1.0","","0","","","","",""
"2003-09-22","2003","09","22","","13.6","","3.1","","8.4","","9.6","","0.0","","1.0","","0.0","","1.0","","0","","","","",""
"2003-09-23","2003","09","23","","18.4","","-0.8","","8.8","","9.2","","0.0","","0.5","","0.0","","0.5","","0","","","","",""
"2003-09-24","2003","09","24","","8.9","","-0.2","","4.4","","13.6","","0.0","","3.5","","0.0","","3.5","","0","","","","",""
"2003-09-25","2003","09","25","","12.5","","0.5","","6.5","","11.5","","0.0","","1.5","","0.0","","1.5","","0","","","","",""
"2003-09-26","2003","09","26","","10.9","","0.7","","5.8","","12.2","","0.0","","1.5","","0.0","","1.5","","0","","","","",""
"2003-09-27","2003","09","27","","11.8","","0.4","","6.1","","11.9","","0.0","","0.0","","0.0","","0.0","","0","","","","",""
"2003-09-28","2003","09","28","","11.8","","0.4","","6.1","","11.9","","0.0","","0.0","T","0.0","","0.0","T","0","","","","",""
"2003-09-29","2003","09","29","","9.5","","-1.7","","3.9","","14.1","","0.0","","1.5","","0.0","","1.5","","0","","","","",""
"2003-09-30","2003","09","30","","8.5","","-6.3","","1.1","","16.9","","0.0","","0.0","","0.0","","0.0","","0","","","","",""
"2003-10-01","2003","10","01","","7.4","","-8.8","","-0.7","","18.7","","0.0","","0.0","","0.0","","0.0","","0","","","","",""
"2003-10-02","2003","10","02","","14.2","","0.3","","7.3","","10.7","","0.0","","0.0","","0.0","","0.0","","0","","","","",""
"2003-10-03","2003","10","03","","14.3","","2.4","","8.4","","9.6","","0.0","","0.0","","0.0","","0.0","","0","","","","",""
"2003-10-04","2003","10","04","","17.0","","1.5","","9.3","","8.7","","0.0","","0.0","","0.0","","0.0","","0","","","","",""
"2003-10-05","2003","10","05","","20.6","","3.7","","12.2","","5.8","","0.0","","0.0","","0.0","","0.0","","0","","","","",""
"2003-10-06","2003","10","06","","25.8","","4.8","","15.3","","2.7","","0.0","","0.0","","0.0","","0.0","","0","","","","",""
"2003-10-07","2003","10","07","","27.1","","4.8","","16.0","","2.0","","0.0","","0.0","","0.0","","0.0","","0","","","","",""
"2003-10-08","2003","10","08","","27.4","","8.6","","18.0","","0.0","","0.0","","0.0","T","0.0","","0.0","T","0","","","","",""
"2003-10-09","2003","10","09","","26.5","","9.2","","17.9","","0.1","","0.0","","0.0","","0.0","","0.0","","0","","","","",""
"2003-10-10","2003","10","10","","19.2","","5.2","","12.2","","5.8","","0.0","","0.0","","0.0","","0.0","","0","","","","",""
"2003-10-11","2003","10","11","","14.9","","6.2","","10.6","","7.4","","0.0","","2.0","","0.0","","2.0","","0","","","","",""
"2003-10-12","2003","10","12","","17.5","","2.1","","9.8","","8.2","","0.0","","0.0","T","0.0","","0.0","T","0","","","","",""
"2003-10-13","2003","10","13","","15.8","","2.6","","9.2","","8.8","","0.0","","0.0","","0.0","","0.0","","0","","","","",""
"2003-10-14","2003","10","14","","11.2","","-1.3","","5.0","","13.0","","0.0","","0.0","T","0.0","","0.0","T","0","","","","",""
"2003-10-15","2003","10","15","","9.4","","-3.6","","2.9","","15.1","","0.0","","0.0","","0.0","","0.0","","0","","","","",""
"2003-10-16","2003","10","16","","6.9","","-4.2","","1.4","","16.6","","0.0","","0.0","","0.0","","0.0","","0","","","","",""
"2003-10-17","2003","10","17","","13.2","","-3.7","","4.8","","13.2","","0.0","","0.0","","0.0","","0.0","","0","","","","",""
"2003-10-18","2003","10","18","","13.7","","-1.4","","6.2","","11.8","","0.0","","0.0","","0.0","","0.0","","0","","","","",""
"2003-10-19","2003","10","19","","18.4","","4.3","","11.4","","6.6","","0.0","","0.0","","0.0","","0.0","","0","","","","",""
"2003-10-20","2003","10","20","","13.2","","1.7","","7.5","","10.5","","0.0","","0.0","","0.0","","0.0","","0","","","","",""
"2003-10-21","2003","10","21","","13.7","","4.6","","9.2","","8.8","","0.0","","0.0","","0.0","","0.0","","0","","","","",""
"2003-10-22","2003","10","22","","15.6","","3.6","","9.6","","8.4","","0.0","","0.0","","0.0","","0.0","","0","","","","",""
"2003-10-23","2003","10","23","","6.8","","1.3","","4.1","","13.9","","0.0","","0.0","T","0.0","","0.0","T","0","","","","",""
"2003-10-24","2003","10","24","","11.4","","1.1","","6.3","","11.7","","0.0","","0.5","","0.0","","0.5","","0","","","","",""
"2003-10-25","2003","10","25","","3.0","","-2.8","","0.1","","17.9","","0.0","","0.0","","0.0","T","0.0","T","0","","","","",""
"2003-10-26","2003","10","26","","1.2","","-2.1","","-0.5","","18.5","","0.0","","0.0","","0.5","E","0.5","","0","","","","",""
"2003-10-27","2003","10","27","","0.9","","-0.8","","0.1","","17.9","","0.0","","0.0","","15.0","E","15.0","","1","","","","",""
"2003-10-28","2003","10","28","","3.1","","-3.5","","-0.2","","18.2","","0.0","","0.0","","0.0","T","0.0","T","10","","","","",""
"2003-10-29","2003","10","29","","1.1","","-8.7","","-3.8","","21.8","","0.0","","0.0","","0.5","E","0.5","","8","","","","",""
"2003-10-30","2003","10","30","","1.3","","-2.1","","-0.4","","18.4","","0.0","","0.0","","0.0","T","0.0","T","8","","","","",""
"2003-10-31","2003","10","31","","-1.3","","-8.6","","-5.0","","23.0","","0.0","","0.0","","0.0","T","0.0","T","7","","","","",""
"2003-11-01","2003","11","01","","-0.9","","-11.9","","-6.4","","24.4","","0.0","","0.0","","0.5","E","0.5","","","","","","",""
"2003-11-02","2003","11","02","","-2.1","","-15.6","","-8.9","","26.9","","0.0","","0.0","","0.0","T","0.0","T","","","","","",""
"2003-11-03","2003","11","03","","-6.2","","-18.6","","-12.4","","30.4","","0.0","","0.0","","0.0","","0.0","","","","","","",""
"2003-11-04","2003","11","04","","-4.0","","-8.7","","-6.4","","24.4","","0.0","","0.0","","2.5","E","2.5","","","","","","",""
"2003-11-05","2003","11","05","","-5.2","","-13.3","","-9.3","","27.3","","0.0","","0.0","","1.5","E","1.5","","","","","","",""
"2003-11-06","2003","11","06","","-8.2","","-15.6","","-11.9","","29.9","","0.0","","0.0","","0.5","E","0.5","","","","","","",""
"2003-11-07","2003","11","07","","-13.8","","-20.7","","-17.3","","35.3","","0.0","","0.0","","0.0","","0.0","","","","","","",""
"2003-11-08","2003","11","08","","-6.8","","-20.6","","-13.7","","31.7","","0.0","","0.0","","0.5","E","0.5","","","","","","",""
"2003-11-09","2003","11","09","","-2.8","","-8.4","","-5.6","","23.6","","0.0","","0.0","","0.0","","0.0","","","","","","",""
"2003-11-10","2003","11","10","","0.8","","-9.1","","-4.2","","22.2","","0.0","","0.0","","0.0","","0.0","","","","","","",""
"2003-11-11","2003","11","11","","1.9","","-7.1","","-2.6","","20.6","","0.0","","0.0","","0.0","","0.0","","","","","","",""
"2003-11-12","2003","11","12","","-0.7","","-12.2","","-6.5","","24.5","","0.0","","0.0","","0.0","","0.0","","","","","","",""
"2003-11-13","2003","11","13","","2.5","","-12.0","","-4.8","","22.8","","0.0","","0.0","","0.0","","0.0","","","","","","",""
"2003-11-14","2003","11","14","","3.9","","-7.8","","-2.0","","20.0","","0.0","","0.0","","0.0","","0.0","","","","","","",""
"2003-11-15","2003","11","15","","3.4","","-6.9","","-1.8","","19.8","","0.0","","0.0","","0.0","","0.0","","","","","","",""
"2003-11-16","2003","11","16","","2.2","","-4.9","","-1.4","","19.4","","0.0","","0.0","","0.5","E","0.5","","","","","","",""
"2003-11-17","2003","11","17","","6.0","","1.5","","3.8","","14.2","","0.0","","0.5","","0.0","","0.5","","","","","","",""
"2003-11-18","2003","11","18","","2.3","","-2.0","","0.2","","17.8","","0.0","","0.0","","0.0","T","0.0","T","","","","","",""
"2003-11-19","2003","11","19","","1.3","","-3.8","","-1.3","","19.3","","0.0","","0.0","","0.5","E","0.5","","","","","","",""
"2003-11-20","2003","11","20","","1.7","","-8.2","","-3.3","","21.3","","0.0","","0.0","","0.0","","0.0","","","","","","",""
"2003-11-21","2003","11","21","","-6.6","","-16.2","","-11.4","","29.4","","0.0","","0.0","","0.0","","0.0","","","","","","",""
"2003-11-22","2003","11","22","","-9.1","","-16.7","","-12.9","","30.9","","0.0","","0.0","","0.0","","0.0","","","","","","",""
"2003-11-23","2003","11","23","","-10.7","","-14.8","","-12.8","","30.8","","0.0","","0.0","","0.0","T","0.0","T","","","","","",""
"2003-11-24","2003","11","24","","-7.9","","-19.2","","-13.6","","31.6","","0.0","","0.0","","0.0","","0.0","","","","","","",""
"2003-11-25","2003","11","25","","-6.6","","-10.0","","-8.3","","26.3","","0.0","","0.0","","3.5","E","3.5","","","","","","",""
"2003-11-26","2003","11","26","","-4.6","","-17.0","","-10.8","","28.8","","0.0","","0.0","","0.0","","0.0","","","","","","",""
"2003-11-27","2003","11","27","","-4.0","","-11.8","","-7.9","","25.9","","0.0","","0.0","","1.5","E","1.5","","","","","","",""
"2003-11-28","2003","11","28","","-6.7","","-18.9","","-12.8","","30.8","","0.0","","0.0","","1.0","E","1.0","","","","","","",""
"2003-11-29","2003","11","29","","1.0","","-8.6","","-3.8","","21.8","","0.0","","0.0","","0.0","T","0.0","T","","","","","",""
"2003-11-30","2003","11","30","","-1.1","","-7.9","","-4.5","","22.5","","0.0","","0.0","","0.5","E","0.5","","","","","","",""
"2003-12-01","2003","12","01","","-4.5","","-14.7","","-9.6","","27.6","","0.0","","0.0","","0.0","","0.0","","","","","","",""
"2003-12-02","2003","12","02","","-0.9","","-14.7","","-7.8","","25.8","","0.0","","0.0","","0.0","","0.0","","","","","","",""
"2003-12-03","2003","12","03","","0.9","","-7.2","","-3.2","","21.2","","0.0","","0.0","","0.0","","0.0","","","","","","",""
"2003-12-04","2003","12","04","","0.5","","-6.3","","-2.9","","20.9","","0.0","","0.0","","2.5","E","2.5","","","","","","",""
"2003-12-05","2003","12","05","","-6.2","","-14.6","","-10.4","","28.4","","0.0","","0.0","","0.0","T","0.0","T","","","","","",""
"2003-12-06","2003","12","06","","-1.8","","-10.4","","-6.1","","24.1","","0.0","","0.0","T","1.0","E","1.0","","","","","","",""
"2003-12-07","2003","12","07","","-0.7","","-3.1","","-1.9","","19.9","","0.0","","0.0","T","0.0","T","0.0","T","","","","","",""
"2003-12-08","2003","12","08","","-0.8","","-17.4","","-9.1","","27.1","","0.0","","0.0","T","0.0","","0.0","T","","","","","",""
"2003-12-09","2003","12","09","","-12.1","","-20.2","","-16.2","","34.2","","0.0","","0.0","","0.0","T","0.0","T","","","","","",""
"2003-12-10","2003","12","10","","-12.2","","-29.8","","-21.0","","39.0","","0.0","","0.0","","0.0","T","0.0","T","","","","","",""
"2003-12-11","2003","12","11","","-20.5","","-31.6","","-26.1","","44.1","","0.0","","0.0","","0.0","","0.0","","","","","","",""
"2003-12-12","2003","12","12","","-12.6","","-25.6","","-19.1","","37.1","","0.0","","0.0","","0.0","T","0.0","T","","","","","",""
"2003-12-13","2003","12","13","","-3.9","","-12.7","","-8.3","","26.3","","0.0","","0.0","","1.0","E","1.0","","","","","","",""
"2003-12-14","2003","12","14","","-2.0","","-12.7","","-7.4","","25.4","","0.0","","0.0","","0.5","E","0.5","","","","","","",""
"2003-12-15","2003","12","15","","-2.0","","-15.8","","-8.9","","26.9","","0.0","","0.0","","3.0","E","3.0","","","","","","",""
"2003-12-16","2003","12","16","","-12.5","","-19.8","","-16.2","","34.2","","0.0","","0.0","","0.0","","0.0","","","","","","",""
"2003-12-17","2003","12","17","","-7.0","","-15.9","","-11.5","","29.5","","0.0","","0.0","","0.0","","0.0","","","","","","",""
"2003-12-18","2003","12","18","","-2.4","","-17.0","","-9.7","","27.7","","0.0","","0.0","","0.5","E","0.5","","","","","","",""
"2003-12-19","2003","12","19","","-5.9","","-20.5","","-13.2","","31.2","","0.0","","0.0","","0.0","T","0.0","T","","","","","",""
"2003-12-20","2003","12","20","","-2.5","","-6.7","","-4.6","","22.6","","0.0","","0.0","","0.0","","0.0","","","","","","",""
"2003-12-21","2003","12","21","","4.3","","-5.0","","-0.4","","18.4","","0.0","","0.0","","0.0","","0.0","","","","","","",""
"2003-12-22","2003","12","22","","-0.4","","-15.5","","-8.0","","26.0","","0.0","","0.0","","0.0","T","0.0","T","","","","","",""
"2003-12-23","2003","12","23","","-4.8","","-13.2","","-9.0","","27.0","","0.0","","0.0","","0.0","","0.0","","","","","","",""
"2003-12-24","2003","12","24","","-4.4","","-11.8","","-8.1","","26.1","","0.0","","0.0","","0.0","","0.0","","","","","","",""
"2003-12-25","2003","12","25","","0.9","","-6.8","","-3.0","","21.0","","0.0","","0.0","","0.0","","0.0","","","","","","",""
"2003-12-26","2003","12","26","","-0.4","","-4.3","","-2.4","","20.4","","0.0","","0.0","","0.0","","0.0","","","","","","",""
"2003-12-27","2003","12","27","","0.9","","-1.1","","-0.1","","18.1","","0.0","","0.0","T","11.0","E","11.0","","","","","","",""
"2003-12-28","2003","12","28","","0.6","","-9.5","","-4.5","","22.5","","0.0","","0.0","T","4.0","E","4.0","","","","","","",""
"2003-12-29","2003","12","29","","-9.4","","-13.4","","-11.4","","29.4","","0.0","","0.0","T","2.5","E","2.5","","","","","","",""
"2003-12-30","2003","12","30","","-13.4","","-23.6","","-18.5","","36.5","","0.0","","0.0","","1.0","E","1.0","","","","","","",""
"2003-12-31","2003","12","31","","-14.1","","-28.3","","-21.2","","39.2","","0.0","","0.0","","1.0","E","1.0","","","","","","",""
