﻿"Station Name","WINNIPEG RICHARDSON INT'L A"
"Province","MANITOBA"
"Latitude","49.92"
"Longitude","-97.23"
"Elevation","238.70"
"Climate Identifier","5023222"
"WMO Identifier","71852"
"TC Identifier","YWG"

"Legend"
"A","Accumulated"
"C","Precipitation occurred, amount uncertain"
"E","Estimated"
"F","Accumulated and estimated"
"L","Precipitation may or may not have occurred"
"M","Missing"
"N","Temperature missing but known to be > 0"
"S","More than one occurrence"
"T","Trace"
"Y","Temperature missing but known to be < 0"
"[empty]","No data available"
"^","The value displayed is based on incomplete data"
"†","Data that is not subject to review by the National Climate Archives"

"Date/Time","Year","Month","Day","Data Quality","Max Temp (°C)","Max Temp Flag","Min Temp (°C)","Min Temp Flag","Mean Temp (°C)","Mean Temp Flag","Heat Deg Days (°C)","Heat Deg Days Flag","Cool Deg Days (°C)","Cool Deg Days Flag","Total Rain (mm)","Total Rain Flag","Total Snow (cm)","Total Snow Flag","Total Precip (mm)","Total Precip Flag","Snow on Grnd (cm)","Snow on Grnd Flag","Dir of Max Gust (10s deg)","Dir of Max Gust Flag","Spd of Max Gust (km/h)","Spd of Max Gust Flag"
"1996-01-01","1996","01","01","","-5.6","","-21.9","","-13.8","","31.8","","0.0","","0.0","","0.2","","0.2","","3","","","","",""
"1996-01-02","1996","01","02","","-13.8","","-18.1","","-16.0","","34.0","","0.0","","0.0","","0.0","","0.0","","3","","","","",""
"1996-01-03","1996","01","03","","-12.8","","-20.3","","-16.6","","34.6","","0.0","","0.0","","1.8","","1.2","","3","","","","",""
"1996-01-04","1996","01","04","","-16.6","","-31.4","","-24.0","","42.0","","0.0","","0.0","","0.0","","0.0","","3","","","","",""
"1996-01-05","1996","01","05","","-25.2","","-32.7","","-29.0","","47.0","","0.0","","0.0","","0.0","","0.0","","3","","","","",""
"1996-01-06","1996","01","06","","-23.9","","-32.8","","-28.4","","46.4","","0.0","","0.0","","0.0","","0.0","","3","","","","",""
"1996-01-07","1996","01","07","","-12.9","","-29.7","","-21.3","","39.3","","0.0","","0.0","","0.2","","0.2","","3","","","","",""
"1996-01-08","1996","01","08","","-4.8","","-21.3","","-13.1","","31.1","","0.0","","0.0","","11.8","","9.4","","3","","","","",""
"1996-01-09","1996","01","09","","-5.5","","-10.6","","-8.1","","26.1","","0.0","","0.0","","0.0","","0.0","","3","","","","",""
"1996-01-10","1996","01","10","","-2.5","","-7.3","","-4.9","","22.9","","0.0","","0.0","","0.0","","0.0","","4","","","","",""
"1996-01-11","1996","01","11","","1.2","","-10.5","","-4.7","","22.7","","0.0","","0.0","","0.0","","0.0","","4","","","","",""
"1996-01-12","1996","01","12","","2.8","","-7.2","","-2.2","","20.2","","0.0","","0.0","","0.0","","0.0","","3","","","","",""
"1996-01-13","1996","01","13","","-2.2","","-19.5","","-10.9","","28.9","","0.0","","0.0","","0.8","","0.8","","3","","","","",""
"1996-01-14","1996","01","14","","-13.4","","-28.2","","-20.8","","38.8","","0.0","","0.0","","0.0","","0.0","","3","","","","",""
"1996-01-15","1996","01","15","","-17.5","","-30.3","","-23.9","","41.9","","0.0","","0.0","","3.0","","2.2","","3","","","","",""
"1996-01-16","1996","01","16","","-16.5","","-23.9","","-20.2","","38.2","","0.0","","0.0","","3.4","","2.6","","3","","","","",""
"1996-01-17","1996","01","17","","-18.9","","-27.5","","-23.2","","41.2","","0.0","","0.0","","3.8","","3.6","","3","","","","",""
"1996-01-18","1996","01","18","","-23.6","","-37.1","","-30.4","","48.4","","0.0","","0.0","","0.0","","0.0","","3","","","","",""
"1996-01-19","1996","01","19","","-29.2","","-39.4","","-34.3","","52.3","","0.0","","0.0","","0.0","","0.0","","4","","","","",""
"1996-01-20","1996","01","20","","-25.4","","-37.3","","-31.4","","49.4","","0.0","","0.0","","0.6","","0.6","","4","","","","",""
"1996-01-21","1996","01","21","","-20.9","","-31.4","","-26.2","","44.2","","0.0","","0.0","","0.0","","0.0","","4","","","","",""
"1996-01-22","1996","01","22","","-22.3","","-30.8","","-26.6","","44.6","","0.0","","0.0","","0.0","","0.0","","4","","","","",""
"1996-01-23","1996","01","23","","-23.7","","-33.0","","-28.4","","46.4","","0.0","","0.0","","0.0","","0.0","","3","","","","",""
"1996-01-24","1996","01","24","","-24.2","","-34.7","","-29.5","","47.5","","0.0","","0.0","","0.0","","0.0","","3","","","","",""
"1996-01-25","1996","01","25","","-25.2","","-35.3","","-30.3","","48.3","","0.0","","0.0","","0.0","","0.0","","3","","","","",""
"1996-01-26","1996","01","26","","-23.7","","-32.1","","-27.9","","45.9","","0.0","","0.0","","0.0","","0.0","","3","","","","",""
"1996-01-27","1996","01","27","","-24.9","","-34.6","","-29.8","","47.8","","0.0","","0.0","","0.0","","0.0","","3","","","","",""
"1996-01-28","1996","01","28","","-25.6","","-35.2","","-30.4","","48.4","","0.0","","0.0","","1.6","","1.6","","3","","","","",""
"1996-01-29","1996","01","29","","-25.2","","-34.1","","-29.7","","47.7","","0.0","","0.0","","0.2","","0.2","","3","","","","",""
"1996-01-30","1996","01","30","","-29.2","","-37.1","","-33.2","","51.2","","0.0","","0.0","","0.0","","0.0","","3","","","","",""
"1996-01-31","1996","01","31","","-30.1","","-39.2","","-34.7","","52.7","","0.0","","0.0","","0.0","","0.0","","3","","","","",""
"1996-02-01","1996","02","01","","-35.3","","-41.8","","-38.6","","56.6","","0.0","","0.0","","0.0","","0.0","","38","","","","",""
"1996-02-02","1996","02","02","","-30.0","","-41.4","","-35.7","","53.7","","0.0","","0.0","","0.0","","0.0","","38","","","","",""
"1996-02-03","1996","02","03","","-25.9","","-34.1","","-30.0","","48.0","","0.0","","0.0","","0.0","","0.0","","38","","","","",""
"1996-02-04","1996","02","04","","-18.2","","-31.0","","-24.6","","42.6","","0.0","","0.0","","0.0","","0.0","","38","","","","",""
"1996-02-05","1996","02","05","","-18.1","","-30.5","","-24.3","","42.3","","0.0","","0.0","","0.0","","0.0","","38","","","","",""
"1996-02-06","1996","02","06","","2.9","","-18.9","","-8.0","","26.0","","0.0","","0.0","","0.0","","0.0","","38","","","","",""
"1996-02-07","1996","02","07","","1.9","","-7.0","","-2.6","","20.6","","0.0","","0.0","","0.0","","0.0","","37","","","","",""
"1996-02-08","1996","02","08","","-2.9","","-11.1","","-7.0","","25.0","","0.0","","0.0","","0.0","","0.0","","36","","","","",""
"1996-02-09","1996","02","09","","1.7","","-9.1","","-3.7","","21.7","","0.0","","2.0","","10.0","","11.8","","36","","","","",""
"1996-02-10","1996","02","10","","0.7","","-4.5","","-1.9","","19.9","","0.0","","0.0","","6.0","","7.4","","36","","","","",""
"1996-02-11","1996","02","11","","-4.1","","-6.6","","-5.4","","23.4","","0.0","","0.0","","0.2","","0.2","","40","","","","",""
"1996-02-12","1996","02","12","","-6.6","","-10.9","","-8.8","","26.8","","0.0","","0.0","","0.0","","0.0","","44","","","","",""
"1996-02-13","1996","02","13","","-2.3","","-9.7","","-6.0","","24.0","","0.0","","0.0","","0.2","","0.2","","44","","","","",""
"1996-02-14","1996","02","14","","-3.7","","-16.0","","-9.9","","27.9","","0.0","","0.0","","1.6","","1.2","","43","","","","",""
"1996-02-15","1996","02","15","","-13.2","","-22.0","","-17.6","","35.6","","0.0","","0.0","","0.0","","0.0","","43","","","","",""
"1996-02-16","1996","02","16","","-11.8","","-23.5","","-17.7","","35.7","","0.0","","0.0","","2.2","","1.4","","41","","","","",""
"1996-02-17","1996","02","17","","-16.7","","-30.7","","-23.7","","41.7","","0.0","","0.0","","0.0","","0.0","","41","","","","",""
"1996-02-18","1996","02","18","","-10.6","","-23.5","","-17.1","","35.1","","0.0","","0.0","","1.0","","0.6","","43","","","","",""
"1996-02-19","1996","02","19","","2.4","","-15.7","","-6.7","","24.7","","0.0","","0.0","","0.6","","0.4","","43","","","","",""
"1996-02-20","1996","02","20","","-13.5","","-24.6","","-19.1","","37.1","","0.0","","0.0","","0.0","","0.0","","44","","","","",""
"1996-02-21","1996","02","21","","-2.2","","-14.5","","-8.4","","26.4","","0.0","","0.0","","0.0","","0.0","","42","","","","",""
"1996-02-22","1996","02","22","","1.7","","-3.1","","-0.7","","18.7","","0.0","","5.6","","4.0","","9.4","","41","","","","",""
"1996-02-23","1996","02","23","","1.1","","-5.4","","-2.2","","20.2","","0.0","","2.2","","2.0","","4.0","","44","","","","",""
"1996-02-24","1996","02","24","","-4.7","","-21.5","","-13.1","","31.1","","0.0","","0.0","","0.0","","0.0","","44","","","","",""
"1996-02-25","1996","02","25","","-18.4","","-26.3","","-22.4","","40.4","","0.0","","0.0","","0.0","","0.0","","44","","","","",""
"1996-02-26","1996","02","26","","-17.6","","-27.7","","-22.7","","40.7","","0.0","","0.0","","0.0","","0.0","","44","","","","",""
"1996-02-27","1996","02","27","","-18.0","","-22.1","","-20.1","","38.1","","0.0","","0.0","","0.0","","0.0","","44","","","","",""
"1996-02-28","1996","02","28","","-18.8","","-29.8","","-24.3","","42.3","","0.0","","0.0","","0.0","","0.0","","44","","","","",""
"1996-02-29","1996","02","29","","-10.0","","-21.2","","-15.6","","33.6","","0.0","","0.0","","0.4","","0.2","","44","","","","",""
"1996-03-01","1996","03","01","","-9.8","","-22.8","","-16.3","","34.3","","0.0","","0.0","","0.4","","0.4","","44","","","","",""
"1996-03-02","1996","03","02","","-19.1","","-28.5","","-23.8","","41.8","","0.0","","0.0","","0.0","","0.0","","44","","","","",""
"1996-03-03","1996","03","03","","-12.7","","-30.1","","-21.4","","39.4","","0.0","","0.0","","0.0","","0.0","","44","","","","",""
"1996-03-04","1996","03","04","","-14.9","","-26.9","","-20.9","","38.9","","0.0","","0.0","","0.0","","0.0","","44","","","","",""
"1996-03-05","1996","03","05","","-19.6","","-30.2","","-24.9","","42.9","","0.0","","0.0","","0.0","","0.0","","44","","","","",""
"1996-03-06","1996","03","06","","-19.2","","-33.7","","-26.5","","44.5","","0.0","","0.0","","0.0","","0.0","","44","","","","",""
"1996-03-07","1996","03","07","","-17.8","","-31.9","","-24.9","","42.9","","0.0","","0.0","","0.0","","0.0","","44","","","","",""
"1996-03-08","1996","03","08","","-10.4","","-20.9","","-15.7","","33.7","","0.0","","0.0","","0.0","","0.0","","44","","","","",""
"1996-03-09","1996","03","09","","-9.1","","-21.8","","-15.5","","33.5","","0.0","","0.0","","0.0","","0.0","","44","","","","",""
"1996-03-10","1996","03","10","","-1.0","","-11.2","","-6.1","","24.1","","0.0","","0.0","","0.0","","0.0","","43","","","","",""
"1996-03-11","1996","03","11","","2.3","","-10.2","","-4.0","","22.0","","0.0","","0.0","T","0.0","","0.0","T","43","","","","",""
"1996-03-12","1996","03","12","","5.0","","-0.6","","2.2","","15.8","","0.0","","0.6","","0.0","","0.6","","42","","","","",""
"1996-03-13","1996","03","13","","2.4","","-5.5","","-1.6","","19.6","","0.0","","0.0","","0.0","","0.0","","38","","","","",""
"1996-03-14","1996","03","14","","1.4","","-9.7","","-4.2","","22.2","","0.0","","0.0","","1.4","","1.2","","36","","","","",""
"1996-03-15","1996","03","15","","2.5","","-11.4","","-4.5","","22.5","","0.0","","0.2","","0.0","T","0.2","","37","","","","",""
"1996-03-16","1996","03","16","","2.8","","-6.8","","-2.0","","20.0","","0.0","","0.2","","1.0","","1.2","","36","","","","",""
"1996-03-17","1996","03","17","","-6.7","","-9.5","","-8.1","","26.1","","0.0","","0.0","","1.0","","0.6","","37","","","","",""
"1996-03-18","1996","03","18","","-6.1","","-11.6","","-8.9","","26.9","","0.0","","0.0","","10.8","","9.0","","38","","","","",""
"1996-03-19","1996","03","19","","-7.2","","-15.4","","-11.3","","29.3","","0.0","","0.0","","0.0","T","0.0","T","44","","","","",""
"1996-03-20","1996","03","20","","-4.9","","-20.2","","-12.6","","30.6","","0.0","","0.0","","0.0","","0.0","","47","","","","",""
"1996-03-21","1996","03","21","","-0.9","","-9.9","","-5.4","","23.4","","0.0","","0.0","","0.2","","0.2","","44","","","","",""
"1996-03-22","1996","03","22","","-5.2","","-15.1","","-10.2","","28.2","","0.0","","0.0","","0.0","","0.0","","43","","","","",""
"1996-03-23","1996","03","23","","-8.6","","-18.6","","-13.6","","31.6","","0.0","","0.0","","2.0","","2.0","","43","","","","",""
"1996-03-24","1996","03","24","","-13.2","","-21.3","","-17.3","","35.3","","0.0","","0.0","","0.0","T","0.0","T","49","","","","",""
"1996-03-25","1996","03","25","","-19.8","","-27.8","","-23.8","","41.8","","0.0","","0.0","","0.0","","0.0","","49","","","","",""
"1996-03-26","1996","03","26","","-13.4","","-28.2","","-20.8","","38.8","","0.0","","0.0","","0.0","T","0.0","T","49","","","","",""
"1996-03-27","1996","03","27","","-10.3","","-18.7","","-14.5","","32.5","","0.0","","0.0","","0.0","","0.0","","49","","","","",""
"1996-03-28","1996","03","28","","-8.4","","-21.0","","-14.7","","32.7","","0.0","","0.0","","0.0","","0.0","","49","","","","",""
"1996-03-29","1996","03","29","","-0.7","","-20.9","","-10.8","","28.8","","0.0","","0.0","T","19.0","","18.2","","49","","","","",""
"1996-03-30","1996","03","30","","-0.5","","-18.9","","-9.7","","27.7","","0.0","","0.0","","0.6","","0.6","","60","","","","",""
"1996-03-31","1996","03","31","","-4.3","","-18.9","","-11.6","","29.6","","0.0","","0.0","","0.0","","0.0","","49","","","","",""
"1996-04-01","1996","04","01","","-8.2","","-22.9","","-15.6","","33.6","","0.0","","0.0","","0.0","","0.0","","44","","","","",""
"1996-04-02","1996","04","02","","-5.7","","-21.7","","-13.7","","31.7","","0.0","","0.0","","2.0","","1.4","","42","","","","",""
"1996-04-03","1996","04","03","","-2.8","","-12.6","","-7.7","","25.7","","0.0","","0.0","","0.0","T","0.0","T","43","","","","",""
"1996-04-04","1996","04","04","","-2.6","","-19.8","","-11.2","","29.2","","0.0","","0.0","","0.0","","0.0","","42","","","","",""
"1996-04-05","1996","04","05","","-1.4","","-11.5","","-6.5","","24.5","","0.0","","0.0","","0.0","","0.0","","42","","","","",""
"1996-04-06","1996","04","06","","0.5","","-16.2","","-7.9","","25.9","","0.0","","0.0","","0.0","","0.0","","42","","","","",""
"1996-04-07","1996","04","07","","0.2","","-13.0","","-6.4","","24.4","","0.0","","0.0","","0.0","","0.0","","40","","","","",""
"1996-04-08","1996","04","08","","2.5","","-1.0","","0.8","","17.2","","0.0","","0.0","","0.0","T","0.0","T","40","","","","",""
"1996-04-09","1996","04","09","","4.4","","0.0","","2.2","","15.8","","0.0","","0.0","","0.0","","0.0","","38","","","","",""
"1996-04-10","1996","04","10","","5.1","","1.8","","3.5","","14.5","","0.0","","0.0","","0.0","","0.0","","38","","","","",""
"1996-04-11","1996","04","11","","2.0","","-6.1","","-2.1","","20.1","","0.0","","0.0","","0.0","","0.0","","35","","","","",""
"1996-04-12","1996","04","12","","0.0","","-9.3","","-4.7","","22.7","","0.0","","0.0","","0.0","","0.0","","33","","","","",""
"1996-04-13","1996","04","13","","2.7","","-10.3","","-3.8","","21.8","","0.0","","0.0","","0.0","","0.0","","30","","","","",""
"1996-04-14","1996","04","14","","4.6","","-2.1","","1.3","","16.7","","0.0","","0.0","","0.0","","0.0","","28","","","","",""
"1996-04-15","1996","04","15","","2.7","","-4.1","","-0.7","","18.7","","0.0","","3.2","","0.6","","3.8","","20","","","","",""
"1996-04-16","1996","04","16","","5.8","","-5.9","","-0.1","","18.1","","0.0","","0.0","","0.0","","0.0","","15","","","","",""
"1996-04-17","1996","04","17","","11.2","","2.8","","7.0","","11.0","","0.0","","0.0","","0.0","","0.0","","10","","","","",""
"1996-04-18","1996","04","18","","11.5","","2.3","","6.9","","11.1","","0.0","","0.0","","0.0","","0.0","","5","","","","",""
"1996-04-19","1996","04","19","","3.6","","-1.3","","1.2","","16.8","","0.0","","0.0","","14.0","","13.6","","0","T","","","",""
"1996-04-20","1996","04","20","","0.9","","-2.7","","-0.9","","18.9","","0.0","","0.0","","1.0","","0.8","","11","","","","",""
"1996-04-21","1996","04","21","","0.0","","-4.1","","-2.1","","20.1","","0.0","","0.0","","3.0","","2.2","","8","","","","",""
"1996-04-22","1996","04","22","","4.5","","-4.3","","0.1","","17.9","","0.0","","0.0","T","0.0","T","0.0","T","3","","","","",""
"1996-04-23","1996","04","23","","5.5","","-2.3","","1.6","","16.4","","0.0","","0.0","","0.0","","0.0","","0","T","","","",""
"1996-04-24","1996","04","24","","3.9","","-2.9","","0.5","","17.5","","0.0","","14.0","","7.2","","21.2","","0","T","","","",""
"1996-04-25","1996","04","25","","2.5","","-3.9","","-0.7","","18.7","","0.0","","0.0","","10.6","","10.6","","4","","","","",""
"1996-04-26","1996","04","26","","0.2","","-7.7","","-3.8","","21.8","","0.0","","0.0","","0.0","","0.0","","8","","","","",""
"1996-04-27","1996","04","27","","5.1","","-6.7","","-0.8","","18.8","","0.0","","0.0","","0.0","","0.0","","5","","","","",""
"1996-04-28","1996","04","28","","9.6","","-2.4","","3.6","","14.4","","0.0","","0.0","","0.0","","0.0","","0","T","","","",""
"1996-04-29","1996","04","29","","12.4","","-1.7","","5.4","","12.6","","0.0","","0.0","","0.0","","0.0","","0","T","","","",""
"1996-04-30","1996","04","30","","11.8","","0.0","","5.9","","12.1","","0.0","","0.0","","0.0","","0.0","","0","T","","","",""
"1996-05-01","1996","05","01","","7.1","","-0.9","","3.1","","14.9","","0.0","","0.0","","0.0","","0.0","","0","","","","",""
"1996-05-02","1996","05","02","","10.3","","-3.7","","3.3","","14.7","","0.0","","0.0","","0.0","","0.0","","0","","","","",""
"1996-05-03","1996","05","03","","10.1","","-4.3","","2.9","","15.1","","0.0","","0.0","","0.0","","0.0","","0","","","","",""
"1996-05-04","1996","05","04","","14.6","","-2.6","","6.0","","12.0","","0.0","","0.0","","0.0","","0.0","","0","","","","",""
"1996-05-05","1996","05","05","","17.3","","-0.9","","8.2","","9.8","","0.0","","0.0","","0.0","","0.0","","0","","","","",""
"1996-05-06","1996","05","06","","16.7","","1.1","","8.9","","9.1","","0.0","","0.6","","0.0","","0.6","","0","","","","",""
"1996-05-07","1996","05","07","","14.8","","2.2","","8.5","","9.5","","0.0","","0.0","","0.0","","0.0","","0","","","","",""
"1996-05-08","1996","05","08","","14.7","","0.2","","7.5","","10.5","","0.0","","0.0","","0.0","","0.0","","0","","","","",""
"1996-05-09","1996","05","09","","7.2","","-4.2","","1.5","","16.5","","0.0","","0.0","","0.0","","0.0","","0","","","","",""
"1996-05-10","1996","05","10","","8.4","","-6.2","","1.1","","16.9","","0.0","","0.0","","0.0","","0.0","","0","","","","",""
"1996-05-11","1996","05","11","","11.5","","-6.0","","2.8","","15.2","","0.0","","0.0","","0.0","","0.0","","0","","","","",""
"1996-05-12","1996","05","12","","15.0","","-2.4","","6.3","","11.7","","0.0","","0.0","","0.0","","0.0","","0","","","","",""
"1996-05-13","1996","05","13","","18.8","","-0.6","","9.1","","8.9","","0.0","","12.8","","0.0","","12.8","","0","","","","",""
"1996-05-14","1996","05","14","","15.6","","9.2","","12.4","","5.6","","0.0","","1.0","","0.0","","1.0","","0","","","","",""
"1996-05-15","1996","05","15","","15.2","","7.1","","11.2","","6.8","","0.0","","21.2","","0.0","","21.2","","0","","","","",""
"1996-05-16","1996","05","16","","18.2","","6.7","","12.5","","5.5","","0.0","","4.6","","0.0","","4.6","","0","","","","",""
"1996-05-17","1996","05","17","","14.2","","10.0","","12.1","","5.9","","0.0","","13.4","","0.0","","13.4","","0","","","","",""
"1996-05-18","1996","05","18","","20.0","","8.2","","14.1","","3.9","","0.0","","13.0","","0.0","","13.0","","0","","","","",""
"1996-05-19","1996","05","19","","15.5","","5.8","","10.7","","7.3","","0.0","","0.0","","0.0","","0.0","","0","","","","",""
"1996-05-20","1996","05","20","","15.3","","5.4","","10.4","","7.6","","0.0","","0.8","","0.0","","0.8","","0","","","","",""
"1996-05-21","1996","05","21","","12.2","","4.7","","8.5","","9.5","","0.0","","0.2","","0.0","","0.2","","0","","","","",""
"1996-05-22","1996","05","22","","12.2","","2.6","","7.4","","10.6","","0.0","","0.0","","0.0","","0.0","","0","","","","",""
"1996-05-23","1996","05","23","","14.7","","2.3","","8.5","","9.5","","0.0","","0.0","","0.0","","0.0","","0","","","","",""
"1996-05-24","1996","05","24","","17.7","","-1.0","","8.4","","9.6","","0.0","","0.0","","0.0","","0.0","","0","","","","",""
"1996-05-25","1996","05","25","","19.2","","1.9","","10.6","","7.4","","0.0","","0.0","","0.0","","0.0","","0","","","","",""
"1996-05-26","1996","05","26","","22.8","","5.1","","14.0","","4.0","","0.0","","0.0","","0.0","","0.0","","0","","","","",""
"1996-05-27","1996","05","27","","24.3","","4.5","","14.4","","3.6","","0.0","","0.0","","0.0","","0.0","","0","","","","",""
"1996-05-28","1996","05","28","","25.2","","3.5","","14.4","","3.6","","0.0","","0.0","","0.0","","0.0","","0","","","","",""
"1996-05-29","1996","05","29","","25.8","","6.3","","16.1","","1.9","","0.0","","0.0","","0.0","","0.0","","0","","","","",""
"1996-05-30","1996","05","30","","25.6","","11.1","","18.4","","0.0","","0.4","","16.6","","0.0","","16.6","","0","","","","",""
"1996-05-31","1996","05","31","","19.5","","13.9","","16.7","","1.3","","0.0","","0.0","","0.0","","0.0","","0","","","","",""
"1996-06-01","1996","06","01","","25.4","","12.1","","18.8","","0.0","","0.8","","0.4","","0.0","","0.4","","0","","","","",""
"1996-06-02","1996","06","02","","14.9","","5.9","","10.4","","7.6","","0.0","","0.0","","0.0","","0.0","","0","","","","",""
"1996-06-03","1996","06","03","","19.4","","5.5","","12.5","","5.5","","0.0","","0.0","","0.0","","0.0","","0","","","","",""
"1996-06-04","1996","06","04","","24.6","","6.1","","15.4","","2.6","","0.0","","11.8","","0.0","","11.8","","0","","","","",""
"1996-06-05","1996","06","05","","17.3","","10.9","","14.1","","3.9","","0.0","","42.8","","0.0","","42.8","","0","","","","",""
"1996-06-06","1996","06","06","","22.8","","9.6","","16.2","","1.8","","0.0","","0.0","","0.0","","0.0","","0","","","","",""
"1996-06-07","1996","06","07","","26.3","","6.7","","16.5","","1.5","","0.0","","0.0","","0.0","","0.0","","0","","","","",""
"1996-06-08","1996","06","08","","29.0","","14.6","","21.8","","0.0","","3.8","","0.0","","0.0","","0.0","","0","","","","",""
"1996-06-09","1996","06","09","","31.5","","23.0","","27.3","","0.0","","9.3","","0.0","","0.0","","0.0","","0","","","","",""
"1996-06-10","1996","06","10","","32.0","","16.1","","24.1","","0.0","","6.1","","8.0","","0.0","","8.0","","0","","","","",""
"1996-06-11","1996","06","11","","31.1","","13.2","","22.2","","0.0","","4.2","","0.2","","0.0","","0.2","","0","","","","",""
"1996-06-12","1996","06","12","","26.9","","13.4","","20.2","","0.0","","2.2","","0.0","","0.0","","0.0","","0","","","","",""
"1996-06-13","1996","06","13","","28.5","","9.5","","19.0","","0.0","","1.0","","0.0","","0.0","","0.0","","0","","","","",""
"1996-06-14","1996","06","14","","31.8","","13.9","","22.9","","0.0","","4.9","","1.4","","0.0","","1.4","","0","","","","",""
"1996-06-15","1996","06","15","","27.7","","11.9","","19.8","","0.0","","1.8","","0.0","","0.0","","0.0","","0","","","","",""
"1996-06-16","1996","06","16","","23.7","","8.5","","16.1","","1.9","","0.0","","0.0","","0.0","","0.0","","0","","","","",""
"1996-06-17","1996","06","17","","29.2","","11.5","","20.4","","0.0","","2.4","","0.0","","0.0","","0.0","","0","","","","",""
"1996-06-18","1996","06","18","","29.2","","17.2","","23.2","","0.0","","5.2","","1.2","","0.0","","1.2","","0","","","","",""
"1996-06-19","1996","06","19","","21.9","","11.7","","16.8","","1.2","","0.0","","10.4","","0.0","","10.4","","0","","","","",""
"1996-06-20","1996","06","20","","24.9","","12.2","","18.6","","0.0","","0.6","","0.0","","0.0","","0.0","","0","","","","",""
"1996-06-21","1996","06","21","","18.7","","8.2","","13.5","","4.5","","0.0","","0.0","","0.0","","0.0","","0","","","","",""
"1996-06-22","1996","06","22","","15.4","","5.0","","10.2","","7.8","","0.0","","0.0","","0.0","","0.0","","0","","","","",""
"1996-06-23","1996","06","23","","12.5","","4.4","","8.5","","9.5","","0.0","","2.8","","0.0","","2.8","","0","","","","",""
"1996-06-24","1996","06","24","","20.9","","7.5","","14.2","","3.8","","0.0","","0.0","","0.0","","0.0","","0","","","","",""
"1996-06-25","1996","06","25","","20.0","","9.0","","14.5","","3.5","","0.0","","4.0","","0.0","","4.0","","0","","","","",""
"1996-06-26","1996","06","26","","24.7","","15.5","","20.1","","0.0","","2.1","","0.0","","0.0","","0.0","","0","","","","",""
"1996-06-27","1996","06","27","","35.4","","21.0","","28.2","","0.0","","10.2","","0.0","","0.0","","0.0","","0","","","","",""
"1996-06-28","1996","06","28","","31.7","","20.9","","26.3","","0.0","","8.3","","0.0","","0.0","","0.0","","0","","","","",""
"1996-06-29","1996","06","29","","30.3","","18.1","","24.2","","0.0","","6.2","","0.8","","0.0","","0.8","","0","","","","",""
"1996-06-30","1996","06","30","","26.4","","14.2","","20.3","","0.0","","2.3","","0.0","","0.0","","0.0","","0","","","","",""
"1996-07-01","1996","07","01","","26.6","","14.6","","20.6","","0.0","","2.6","","0.0","","0.0","","0.0","","0","","","","",""
"1996-07-02","1996","07","02","","28.6","","9.2","","18.9","","0.0","","0.9","","0.0","","0.0","","0.0","","0","","","","",""
"1996-07-03","1996","07","03","","29.8","","13.9","","21.9","","0.0","","3.9","","0.0","","0.0","","0.0","","0","","","","",""
"1996-07-04","1996","07","04","","30.6","","17.1","","23.9","","0.0","","5.9","","0.0","","0.0","","0.0","","0","","","","",""
"1996-07-05","1996","07","05","","28.4","","19.1","","23.8","","0.0","","5.8","","0.0","","0.0","","0.0","","0","","","","",""
"1996-07-06","1996","07","06","","25.6","","14.3","","20.0","","0.0","","2.0","","0.0","","0.0","","0.0","","0","","","","",""
"1996-07-07","1996","07","07","","24.2","","10.3","","17.3","","0.7","","0.0","","10.2","","0.0","","10.2","","0","","","","",""
"1996-07-08","1996","07","08","","20.1","","7.5","","13.8","","4.2","","0.0","","4.4","","0.0","","4.4","","0","","","","",""
"1996-07-09","1996","07","09","","22.9","","5.4","","14.2","","3.8","","0.0","","0.0","","0.0","","0.0","","0","","","","",""
"1996-07-10","1996","07","10","","25.5","","9.9","","17.7","","0.3","","0.0","","4.6","","0.0","","4.6","","0","","","","",""
"1996-07-11","1996","07","11","","22.3","","14.2","","18.3","","0.0","","0.3","","1.6","","0.0","","1.6","","0","","","","",""
"1996-07-12","1996","07","12","","25.4","","13.6","","19.5","","0.0","","1.5","","0.4","","0.0","","0.4","","0","","","","",""
"1996-07-13","1996","07","13","","27.3","","13.1","","20.2","","0.0","","2.2","","1.5","","0.0","","1.5","","0","","","","",""
"1996-07-14","1996","07","14","","24.5","","14.1","","19.3","","0.0","","1.3","","0.0","","0.0","","0.0","","0","","","","",""
"1996-07-15","1996","07","15","","26.2","","11.4","","18.8","","0.0","","0.8","","0.0","","0.0","","0.0","","0","","","","",""
"1996-07-16","1996","07","16","","25.8","","11.2","","18.5","","0.0","","0.5","","58.8","","0.0","","58.8","","0","","","","",""
"1996-07-17","1996","07","17","","28.9","","19.5","","24.2","","0.0","","6.2","","1.2","","0.0","","1.2","","0","","","","",""
"1996-07-18","1996","07","18","","28.3","","18.0","","23.2","","0.0","","5.2","","0.0","","0.0","","0.0","","0","","","","",""
"1996-07-19","1996","07","19","","24.1","","16.5","","20.3","","0.0","","2.3","","2.2","","0.0","","2.2","","0","","","","",""
"1996-07-20","1996","07","20","","24.7","","14.7","","19.7","","0.0","","1.7","","8.0","","0.0","","8.0","","0","","","","",""
"1996-07-21","1996","07","21","","26.6","","13.2","","19.9","","0.0","","1.9","","0.0","","0.0","","0.0","","0","","","","",""
"1996-07-22","1996","07","22","","23.1","","11.5","","17.3","","0.7","","0.0","","0.2","","0.0","","0.2","","0","","","","",""
"1996-07-23","1996","07","23","","21.1","","13.4","","17.3","","0.7","","0.0","","0.4","","0.0","","0.4","","0","","","","",""
"1996-07-24","1996","07","24","","24.0","","10.5","","17.3","","0.7","","0.0","","3.0","","0.0","","3.0","","0","","","","",""
"1996-07-25","1996","07","25","","24.2","","8.1","","16.2","","1.8","","0.0","","0.0","","0.0","","0.0","","0","","","","",""
"1996-07-26","1996","07","26","","22.8","","10.0","","16.4","","1.6","","0.0","","0.0","","0.0","","0.0","","0","","","","",""
"1996-07-27","1996","07","27","","22.5","","12.5","","17.5","","0.5","","0.0","","0.0","","0.0","","0.0","","0","","","","",""
"1996-07-28","1996","07","28","","20.2","","12.8","","16.5","","1.5","","0.0","","0.8","","0.0","","0.8","","0","","","","",""
"1996-07-29","1996","07","29","","24.4","","12.6","","18.5","","0.0","","0.5","","0.0","","0.0","","0.0","","0","","","","",""
"1996-07-30","1996","07","30","","26.5","","10.2","","18.4","","0.0","","0.4","","0.0","","0.0","","0.0","","0","","","","",""
"1996-07-31","1996","07","31","","25.3","","10.7","","18.0","","0.0","","0.0","","0.0","","0.0","","0.0","","0","","","","",""
"1996-08-01","1996","08","01","","26.6","","13.4","","20.0","","0.0","","2.0","","0.0","","0.0","","0.0","","0","","","","",""
"1996-08-02","1996","08","02","","27.5","","16.4","","22.0","","0.0","","4.0","","0.0","","0.0","","0.0","","0","","","","",""
"1996-08-03","1996","08","03","","28.1","","18.5","","23.3","","0.0","","5.3","","0.0","","0.0","","0.0","","0","","","","",""
"1996-08-04","1996","08","04","","27.2","","17.1","","22.2","","0.0","","4.2","","29.2","","0.0","","29.2","","0","","","","",""
"1996-08-05","1996","08","05","","27.5","","14.3","","20.9","","0.0","","2.9","","0.0","","0.0","","0.0","","0","","","","",""
"1996-08-06","1996","08","06","","23.4","","15.7","","19.6","","0.0","","1.6","","0.0","","0.0","","0.0","","0","","","","",""
"1996-08-07","1996","08","07","","22.2","","12.8","","17.5","","0.5","","0.0","","12.2","","0.0","","12.2","","0","","","","",""
"1996-08-08","1996","08","08","","20.4","","10.0","","15.2","","2.8","","0.0","","0.0","","0.0","","0.0","","0","","","","",""
"1996-08-09","1996","08","09","","20.8","","10.5","","15.7","","2.3","","0.0","","0.0","","0.0","","0.0","","0","","","","",""
"1996-08-10","1996","08","10","","26.6","","11.1","","18.9","","0.0","","0.9","","0.0","","0.0","","0.0","","0","","","","",""
"1996-08-11","1996","08","11","","25.2","","11.0","","18.1","","0.0","","0.1","","0.0","","0.0","","0.0","","0","","","","",""
"1996-08-12","1996","08","12","","23.9","","5.8","","14.9","","3.1","","0.0","","0.0","T","0.0","","0.0","T","0","","","","",""
"1996-08-13","1996","08","13","","24.4","","11.6","","18.0","","0.0","","0.0","","0.0","T","0.0","","0.0","T","0","","","","",""
"1996-08-14","1996","08","14","","24.0","","12.4","","18.2","","0.0","","0.2","","0.0","","0.0","","0.0","","0","","","","",""
"1996-08-15","1996","08","15","","28.0","","9.6","","18.8","","0.0","","0.8","","0.0","","0.0","","0.0","","0","","","","",""
"1996-08-16","1996","08","16","","29.5","","14.1","","21.8","","0.0","","3.8","","0.0","","0.0","","0.0","","0","","","","",""
"1996-08-17","1996","08","17","","32.6","","11.4","","22.0","","0.0","","4.0","","0.0","","0.0","","0.0","","0","","","","",""
"1996-08-18","1996","08","18","","27.9","","17.1","","22.5","","0.0","","4.5","","20.0","","0.0","","20.0","","0","","","","",""
"1996-08-19","1996","08","19","","21.6","","12.9","","17.3","","0.7","","0.0","","9.4","","0.0","","9.4","","0","","","","",""
"1996-08-20","1996","08","20","","25.8","","9.3","","17.6","","0.4","","0.0","","6.3","","0.0","","6.3","","0","","","","",""
"1996-08-21","1996","08","21","","23.6","","14.1","","18.9","","0.0","","0.9","","8.4","","0.0","","8.4","","0","","","","",""
"1996-08-22","1996","08","22","","23.6","","12.0","","17.8","","0.2","","0.0","","0.0","","0.0","","0.0","","0","","","","",""
"1996-08-23","1996","08","23","","27.5","","12.0","","19.8","","0.0","","1.8","","0.0","","0.0","","0.0","","0","","","","",""
"1996-08-24","1996","08","24","","31.4","","12.8","","22.1","","0.0","","4.1","","0.0","","0.0","","0.0","","0","","","","",""
"1996-08-25","1996","08","25","","21.7","","8.7","","15.2","","2.8","","0.0","","0.0","","0.0","","0.0","","0","","","","",""
"1996-08-26","1996","08","26","","23.3","","5.9","","14.6","","3.4","","0.0","","0.0","","0.0","","0.0","","0","","","","",""
"1996-08-27","1996","08","27","","27.2","","12.8","","20.0","","0.0","","2.0","","0.0","","0.0","","0.0","","0","","","","",""
"1996-08-28","1996","08","28","","27.8","","11.6","","19.7","","0.0","","1.7","","0.0","","0.0","","0.0","","0","","","","",""
"1996-08-29","1996","08","29","","28.3","","9.9","","19.1","","0.0","","1.1","","0.0","","0.0","","0.0","","0","","","","",""
"1996-08-30","1996","08","30","","31.0","","12.8","","21.9","","0.0","","3.9","","0.0","","0.0","","0.0","","0","","","","",""
"1996-08-31","1996","08","31","","31.1","","16.6","","23.9","","0.0","","5.9","","0.0","","0.0","","0.0","","0","","","","",""
"1996-09-01","1996","09","01","","26.5","","15.4","","21.0","","0.0","","3.0","","10.4","","0.0","","10.4","","0","","","","",""
"1996-09-02","1996","09","02","","27.2","","12.6","","19.9","","0.0","","1.9","","0.0","","0.0","","0.0","","0","","","","",""
"1996-09-03","1996","09","03","","25.4","","10.2","","17.8","","0.2","","0.0","","0.0","","0.0","","0.0","","0","","","","",""
"1996-09-04","1996","09","04","","20.7","","6.3","","13.5","","4.5","","0.0","","4.6","","0.0","","4.6","","0","","","","",""
"1996-09-05","1996","09","05","","26.5","","13.8","","20.2","","0.0","","2.2","","2.6","","0.0","","2.6","","0","","","","",""
"1996-09-06","1996","09","06","","25.4","","11.5","","18.5","","0.0","","0.5","","0.2","","0.0","","0.2","","0","","","","",""
"1996-09-07","1996","09","07","","23.9","","7.2","","15.6","","2.4","","0.0","","0.0","","0.0","","0.0","","0","","","","",""
"1996-09-08","1996","09","08","","26.7","","13.1","","19.9","","0.0","","1.9","","0.4","","0.0","","0.4","","0","","","","",""
"1996-09-09","1996","09","09","","24.4","","12.9","","18.7","","0.0","","0.7","","3.6","","0.0","","3.6","","0","","","","",""
"1996-09-10","1996","09","10","","17.0","","8.0","","12.5","","5.5","","0.0","","0.0","","0.0","","0.0","","0","","","","",""
"1996-09-11","1996","09","11","","15.5","","7.8","","11.7","","6.3","","0.0","","0.0","T","0.0","","0.0","T","0","","","","",""
"1996-09-12","1996","09","12","","15.1","","7.5","","11.3","","6.7","","0.0","","0.0","","0.0","","0.0","","0","","","","",""
"1996-09-13","1996","09","13","","19.1","","3.4","","11.3","","6.7","","0.0","","0.0","","0.0","","0.0","","0","","","","",""
"1996-09-14","1996","09","14","","18.0","","2.3","","10.2","","7.8","","0.0","","0.0","","0.0","","0.0","","0","","","","",""
"1996-09-15","1996","09","15","","20.5","","1.6","","11.1","","6.9","","0.0","","0.0","","0.0","","0.0","","0","","","","",""
"1996-09-16","1996","09","16","","17.2","","3.3","","10.3","","7.7","","0.0","","0.0","","0.0","","0.0","","0","","","","",""
"1996-09-17","1996","09","17","","20.9","","8.8","","14.9","","3.1","","0.0","","0.0","","0.0","","0.0","","0","","","","",""
"1996-09-18","1996","09","18","","22.6","","4.8","","13.7","","4.3","","0.0","","0.0","","0.0","","0.0","","0","","","","",""
"1996-09-19","1996","09","19","","23.1","","9.7","","16.4","","1.6","","0.0","","0.0","","0.0","","0.0","","0","","","","",""
"1996-09-20","1996","09","20","","20.0","","7.6","","13.8","","4.2","","0.0","","4.0","","0.0","","4.0","","0","","","","",""
"1996-09-21","1996","09","21","","15.6","","11.0","","13.3","","4.7","","0.0","","5.0","","0.0","","5.0","","0","","","","",""
"1996-09-22","1996","09","22","","15.7","","9.2","","12.5","","5.5","","0.0","","1.6","","0.0","","1.6","","0","","","","",""
"1996-09-23","1996","09","23","","16.6","","5.1","","10.9","","7.1","","0.0","","1.8","","0.0","","1.8","","0","","","","",""
"1996-09-24","1996","09","24","","13.9","","1.1","","7.5","","10.5","","0.0","","0.6","","0.0","","0.6","","0","","","","",""
"1996-09-25","1996","09","25","","17.7","","5.1","","11.4","","6.6","","0.0","","0.0","","0.0","","0.0","","0","","","","",""
"1996-09-26","1996","09","26","","9.9","","5.3","","7.6","","10.4","","0.0","","11.8","","0.0","","11.8","","0","","","","",""
"1996-09-27","1996","09","27","","11.2","","5.3","","8.3","","9.7","","0.0","","1.4","","0.0","","1.4","","0","","","","",""
"1996-09-28","1996","09","28","","11.0","","-0.1","","5.5","","12.5","","0.0","","0.0","","0.0","","0.0","","0","","","","",""
"1996-09-29","1996","09","29","","9.7","","-0.2","","4.8","","13.2","","0.0","","0.4","","0.0","","0.4","","0","","","","",""
"1996-09-30","1996","09","30","","10.7","","3.8","","7.3","","10.7","","0.0","","1.4","","0.0","","1.4","","0","","","","",""
"1996-10-01","1996","10","01","","6.3","","0.4","","3.4","","14.6","","0.0","","5.0","","4.0","","9.0","","0","","","","",""
"1996-10-02","1996","10","02","","9.6","","-1.4","","4.1","","13.9","","0.0","","0.0","","0.0","","0.0","","0","","","","",""
"1996-10-03","1996","10","03","","10.0","","-3.9","","3.1","","14.9","","0.0","","0.0","","0.0","","0.0","","0","","","","",""
"1996-10-04","1996","10","04","","17.0","","3.8","","10.4","","7.6","","0.0","","0.0","","0.0","","0.0","","0","","","","",""
"1996-10-05","1996","10","05","","23.4","","9.4","","16.4","","1.6","","0.0","","0.0","","0.0","","0.0","","0","","","","",""
"1996-10-06","1996","10","06","","10.7","","-3.2","","3.8","","14.2","","0.0","","0.0","","0.0","","0.0","","0","","","","",""
"1996-10-07","1996","10","07","","11.1","","-5.1","","3.0","","15.0","","0.0","","0.4","","0.0","","0.4","","0","","","","",""
"1996-10-08","1996","10","08","","17.5","","6.4","","12.0","","6.0","","0.0","","0.0","","0.0","","0.0","","0","","","","",""
"1996-10-09","1996","10","09","","9.6","","-0.4","","4.6","","13.4","","0.0","","0.0","","0.0","","0.0","","0","","","","",""
"1996-10-10","1996","10","10","","15.6","","1.1","","8.4","","9.6","","0.0","","0.0","","0.0","","0.0","","0","","","","",""
"1996-10-11","1996","10","11","","18.5","","4.3","","11.4","","6.6","","0.0","","0.0","","0.0","","0.0","","0","","","","",""
"1996-10-12","1996","10","12","","22.8","","0.0","","11.4","","6.6","","0.0","","0.0","","0.0","","0.0","","0","","","","",""
"1996-10-13","1996","10","13","","12.5","","0.0","","6.3","","11.7","","0.0","","0.0","","0.0","","0.0","","0","","","","",""
"1996-10-14","1996","10","14","","12.6","","5.0","","8.8","","9.2","","0.0","","0.2","","0.0","","0.2","","0","","","","",""
"1996-10-15","1996","10","15","","18.7","","7.9","","13.3","","4.7","","0.0","","0.0","","0.0","","0.0","","0","","","","",""
"1996-10-16","1996","10","16","","14.3","","-2.1","","6.1","","11.9","","0.0","","0.0","","0.0","","0.0","","0","","","","",""
"1996-10-17","1996","10","17","","6.6","","-2.6","","2.0","","16.0","","0.0","","0.0","","0.0","","0.0","","0","","","","",""
"1996-10-18","1996","10","18","","7.1","","-0.6","","3.3","","14.7","","0.0","","0.0","","0.0","","0.0","","0","","","","",""
"1996-10-19","1996","10","19","","12.3","","3.4","","7.9","","10.1","","0.0","","0.0","","0.0","","0.0","","0","","","","",""
"1996-10-20","1996","10","20","","14.1","","2.9","","8.5","","9.5","","0.0","","2.2","","0.0","","2.2","","0","","","","",""
"1996-10-21","1996","10","21","","9.1","","4.8","","7.0","","11.0","","0.0","","0.6","","0.0","","0.6","","0","","","","",""
"1996-10-22","1996","10","22","","4.8","","2.1","","3.5","","14.5","","0.0","","0.0","T","0.0","","0.0","T","0","","","","",""
"1996-10-23","1996","10","23","","4.4","","1.6","","3.0","","15.0","","0.0","","0.0","","0.0","","0.0","","0","","","","",""
"1996-10-24","1996","10","24","","9.4","","-4.2","","2.6","","15.4","","0.0","","0.4","","0.0","T","0.4","","0","","","","",""
"1996-10-25","1996","10","25","","5.8","","2.0","","3.9","","14.1","","0.0","","0.0","","0.0","","0.0","","0","","","","",""
"1996-10-26","1996","10","26","","6.9","","3.6","","5.3","","12.7","","0.0","","12.4","","0.0","","12.4","","0","","","","",""
"1996-10-27","1996","10","27","","7.3","","1.0","","4.2","","13.8","","0.0","","0.0","","0.0","","0.0","","0","","","","",""
"1996-10-28","1996","10","28","","8.5","","-0.6","","4.0","","14.0","","0.0","","0.0","","0.0","","0.0","","0","","","","",""
"1996-10-29","1996","10","29","","8.4","","-6.6","","0.9","","17.1","","0.0","","0.0","","0.2","","0.2","","0","","","","",""
"1996-10-30","1996","10","30","","-6.5","","-12.3","","-9.4","","27.4","","0.0","","0.0","","2.0","","2.0","","0","T","","","",""
"1996-10-31","1996","10","31","","-3.4","","-12.8","","-8.1","","26.1","","0.0","","0.0","","0.0","T","0.0","T","2","","","","",""
"1996-11-01","1996","11","01","","-4.6","","-13.7","","-9.2","","27.2","","0.0","","0.0","","0.0","","0.0","","0","T","","","",""
"1996-11-02","1996","11","02","","3.1","","-14.2","","-5.6","","23.6","","0.0","","0.0","","0.0","","0.0","","0","T","","","",""
"1996-11-03","1996","11","03","","10.4","","-3.2","","3.6","","14.4","","0.0","","0.0","","0.0","","0.0","","0","T","","","",""
"1996-11-04","1996","11","04","","2.5","","-6.2","","-1.9","","19.9","","0.0","","0.0","","0.0","","0.0","","0","","","","",""
"1996-11-05","1996","11","05","","2.8","","-6.3","","-1.8","","19.8","","0.0","","0.0","","7.2","","6.6","","0","","","","",""
"1996-11-06","1996","11","06","","0.5","","-0.6","","-0.1","","18.1","","0.0","","0.0","","15.0","","13.2","","5","","","","",""
"1996-11-07","1996","11","07","","0.4","","-8.2","","-3.9","","21.9","","0.0","","0.0","","0.0","","0.0","","12","","","","",""
"1996-11-08","1996","11","08","","0.2","","-13.7","","-6.8","","24.8","","0.0","","0.0","","0.0","","0.0","","10","","","","",""
"1996-11-09","1996","11","09","","-6.1","","-13.0","","-9.6","","27.6","","0.0","","0.0","","0.2","","0.2","","8","","","","",""
"1996-11-10","1996","11","10","","-7.4","","-19.7","","-13.6","","31.6","","0.0","","0.0","","0.0","T","0.0","T","8","","","","",""
"1996-11-11","1996","11","11","","-10.8","","-20.0","","-15.4","","33.4","","0.0","","0.0","","0.0","T","0.0","T","8","","","","",""
"1996-11-12","1996","11","12","","-12.0","","-24.1","","-18.1","","36.1","","0.0","","0.0","","0.0","T","0.0","T","8","","","","",""
"1996-11-13","1996","11","13","","-13.7","","-25.1","","-19.4","","37.4","","0.0","","0.0","","0.0","T","0.0","T","8","","","","",""
"1996-11-14","1996","11","14","","-4.7","","-21.3","","-13.0","","31.0","","0.0","","0.0","","6.4","","5.8","","8","","","","",""
"1996-11-15","1996","11","15","","-0.1","","-5.7","","-2.9","","20.9","","0.0","","0.0","T","0.0","T","0.0","T","12","","","","",""
"1996-11-16","1996","11","16","","-3.6","","-13.0","","-8.3","","26.3","","0.0","","0.0","","8.0","","7.8","","12","","","","",""
"1996-11-17","1996","11","17","","-6.1","","-11.1","","-8.6","","26.6","","0.0","","0.0","","16.0","","16.2","","18","","","","",""
"1996-11-18","1996","11","18","","-10.7","","-24.3","","-17.5","","35.5","","0.0","","0.0","","0.0","T","0.0","T","27","","","","",""
"1996-11-19","1996","11","19","","-15.3","","-24.0","","-19.7","","37.7","","0.0","","0.0","","0.0","T","0.0","T","27","","","","",""
"1996-11-20","1996","11","20","","-6.5","","-18.5","","-12.5","","30.5","","0.0","","0.0","","5.2","","4.4","","27","","","","",""
"1996-11-21","1996","11","21","","-10.0","","-23.4","","-16.7","","34.7","","0.0","","0.0","","0.0","","0.0","","25","","","","",""
"1996-11-22","1996","11","22","","-15.8","","-24.9","","-20.4","","38.4","","0.0","","0.0","","0.0","","0.0","","25","","","","",""
"1996-11-23","1996","11","23","","-16.2","","-26.4","","-21.3","","39.3","","0.0","","0.0","","0.2","","0.2","","25","","","","",""
"1996-11-24","1996","11","24","","-13.7","","-27.0","","-20.4","","38.4","","0.0","","0.0","","0.0","T","0.0","T","25","","","","",""
"1996-11-25","1996","11","25","","-17.6","","-29.7","","-23.7","","41.7","","0.0","","0.0","","0.0","","0.0","","25","","","","",""
"1996-11-26","1996","11","26","","-18.0","","-27.9","","-23.0","","41.0","","0.0","","0.0","","0.0","","0.0","","25","","","","",""
"1996-11-27","1996","11","27","","-12.6","","-25.7","","-19.2","","37.2","","0.0","","0.0","","0.4","","0.2","","25","","","","",""
"1996-11-28","1996","11","28","","-6.2","","-19.1","","-12.7","","30.7","","0.0","","0.0","","0.0","T","0.0","T","25","","","","",""
"1996-11-29","1996","11","29","","-3.9","","-9.5","","-6.7","","24.7","","0.0","","0.0","","0.2","","0.2","","25","","","","",""
"1996-11-30","1996","11","30","","-5.4","","-9.4","","-7.4","","25.4","","0.0","","0.0","","4.0","","3.6","","26","","","","",""
"1996-12-01","1996","12","01","","-9.4","","-21.6","","-15.5","","33.5","","0.0","","0.0","","0.4","","0.2","","28","","","","",""
"1996-12-02","1996","12","02","","-11.3","","-21.3","","-16.3","","34.3","","0.0","","0.0","","2.8","","1.2","","28","","","","",""
"1996-12-03","1996","12","03","","-11.4","","-15.3","","-13.4","","31.4","","0.0","","0.0","","0.2","","0.2","","31","","","","",""
"1996-12-04","1996","12","04","","-8.1","","-11.6","","-9.9","","27.9","","0.0","","0.0","","0.0","","0.0","","31","","","","",""
"1996-12-05","1996","12","05","","-4.6","","-10.4","","-7.5","","25.5","","0.0","","0.0","","1.8","","1.8","","31","","","","",""
"1996-12-06","1996","12","06","","-4.3","","-5.6","","-5.0","","23.0","","0.0","","0.0","","1.6","","1.2","","31","","","","",""
"1996-12-07","1996","12","07","","-3.2","","-5.7","","-4.5","","22.5","","0.0","","0.0","","0.2","","0.2","","34","","","","",""
"1996-12-08","1996","12","08","","-5.7","","-16.3","","-11.0","","29.0","","0.0","","0.0","","0.2","","0.2","","34","","","","",""
"1996-12-09","1996","12","09","","-5.3","","-12.3","","-8.8","","26.8","","0.0","","0.0","","0.8","","0.6","","34","","","","",""
"1996-12-10","1996","12","10","","-8.6","","-15.2","","-11.9","","29.9","","0.0","","0.0","","0.0","","0.0","","34","","","","",""
"1996-12-11","1996","12","11","","-0.4","","-8.6","","-4.5","","22.5","","0.0","","0.0","","11.0","","10.8","","34","","","","",""
"1996-12-12","1996","12","12","","-1.4","","-8.8","","-5.1","","23.1","","0.0","","0.0","","0.5","","0.6","","45","","","","",""
"1996-12-13","1996","12","13","","-5.2","","-18.6","","-11.9","","29.9","","0.0","","0.0","","0.0","","0.0","","45","","","","",""
"1996-12-14","1996","12","14","","-11.4","","-22.5","","-17.0","","35.0","","0.0","","0.0","","0.0","T","0.0","T","45","","","","",""
"1996-12-15","1996","12","15","","-16.0","","-25.0","","-20.5","","38.5","","0.0","","0.0","","0.0","T","0.0","T","45","","","","",""
"1996-12-16","1996","12","16","","-10.8","","-16.3","","-13.6","","31.6","","0.0","","0.0","","0.2","","0.2","","45","","","","",""
"1996-12-17","1996","12","17","","-13.7","","-20.1","","-16.9","","34.9","","0.0","","0.0","","5.2","","4.6","","42","","","","",""
"1996-12-18","1996","12","18","","-19.9","","-27.4","","-23.7","","41.7","","0.0","","0.0","","0.0","T","0.0","T","42","","","","",""
"1996-12-19","1996","12","19","","-21.4","","-31.4","","-26.4","","44.4","","0.0","","0.0","","0.8","","0.6","","42","","","","",""
"1996-12-20","1996","12","20","","-13.8","","-21.5","","-17.7","","35.7","","0.0","","0.0","","9.0","","7.6","","42","","","","",""
"1996-12-21","1996","12","21","","-17.8","","-35.1","","-26.5","","44.5","","0.0","","0.0","","0.0","T","0.0","T","48","","","","",""
"1996-12-22","1996","12","22","","-27.2","","-35.4","","-31.3","","49.3","","0.0","","0.0","","0.0","","0.0","","48","","","","",""
"1996-12-23","1996","12","23","","-24.3","","-35.5","","-29.9","","47.9","","0.0","","0.0","","0.0","T","0.0","T","48","","","","",""
"1996-12-24","1996","12","24","","-28.8","","-37.0","","-32.9","","50.9","","0.0","","0.0","","0.0","T","0.0","T","48","","","","",""
"1996-12-25","1996","12","25","","-27.8","","-35.8","","-31.8","","49.8","","0.0","","0.0","","0.0","","0.0","","45","","","","",""
"1996-12-26","1996","12","26","","-24.9","","-30.5","","-27.7","","45.7","","0.0","","0.0","","0.0","","0.0","","45","","","","",""
"1996-12-27","1996","12","27","","-20.8","","-31.1","","-26.0","","44.0","","0.0","","0.0","","1.8","","1.8","","45","","","","",""
"1996-12-28","1996","12","28","","-19.6","","-36.1","","-27.9","","45.9","","0.0","","0.0","","1.6","","1.6","","49","","","","",""
"1996-12-29","1996","12","29","","-27.0","","-35.8","","-31.4","","49.4","","0.0","","0.0","","0.0","T","0.0","T","50","","","","",""
"1996-12-30","1996","12","30","","-21.8","","-28.3","","-25.1","","43.1","","0.0","","0.0","","0.5","","0.4","","50","","","","",""
"1996-12-31","1996","12","31","","-8.7","","-26.2","","-17.5","","35.5","","0.0","","1.0","","4.2","","6.4","","50","","","","",""
