﻿"Station Name","WINNIPEG RICHARDSON INT'L A"
"Province","MANITOBA"
"Latitude","49.92"
"Longitude","-97.23"
"Elevation","238.70"
"Climate Identifier","5023222"
"WMO Identifier","71852"
"TC Identifier","YWG"

"Legend"
"A","Accumulated"
"C","Precipitation occurred, amount uncertain"
"E","Estimated"
"F","Accumulated and estimated"
"L","Precipitation may or may not have occurred"
"M","Missing"
"N","Temperature missing but known to be > 0"
"S","More than one occurrence"
"T","Trace"
"Y","Temperature missing but known to be < 0"
"[empty]","No data available"
"^","The value displayed is based on incomplete data"
"†","Data that is not subject to review by the National Climate Archives"

"Date/Time","Year","Month","Day","Data Quality","Max Temp (°C)","Max Temp Flag","Min Temp (°C)","Min Temp Flag","Mean Temp (°C)","Mean Temp Flag","Heat Deg Days (°C)","Heat Deg Days Flag","Cool Deg Days (°C)","Cool Deg Days Flag","Total Rain (mm)","Total Rain Flag","Total Snow (cm)","Total Snow Flag","Total Precip (mm)","Total Precip Flag","Snow on Grnd (cm)","Snow on Grnd Flag","Dir of Max Gust (10s deg)","Dir of Max Gust Flag","Spd of Max Gust (km/h)","Spd of Max Gust Flag"
"1994-01-01","1994","01","01","","-19.9","","-27.8","","-23.9","","41.9","","0.0","","0.0","","0.4","","0.4","","9","","","","<31",""
"1994-01-02","1994","01","02","","-20.6","","-31.6","","-26.1","","44.1","","0.0","","0.0","","0.0","T","0.0","T","9","","","","<31",""
"1994-01-03","1994","01","03","","-16.1","","-20.6","","-18.4","","36.4","","0.0","","0.0","","1.2","","1.2","","9","","","","<31",""
"1994-01-04","1994","01","04","","-18.0","","-33.6","","-25.8","","43.8","","0.0","","0.0","","0.8","","0.6","","10","","","","<31",""
"1994-01-05","1994","01","05","","-23.5","","-33.6","","-28.6","","46.6","","0.0","","0.0","","1.4","","1.0","","10","","4","","35",""
"1994-01-06","1994","01","06","","-23.0","","-27.4","","-25.2","","43.2","","0.0","","0.0","","1.2","","0.8","","9","","4","","39",""
"1994-01-07","1994","01","07","","-23.8","","-29.6","","-26.7","","44.7","","0.0","","0.0","","1.4","","1.0","","10","","","","<31",""
"1994-01-08","1994","01","08","","-22.8","","-29.0","","-25.9","","43.9","","0.0","","0.0","","1.4","","1.0","","11","","","","<31",""
"1994-01-09","1994","01","09","","-14.3","","-30.6","","-22.5","","40.5","","0.0","","0.0","","0.4","","0.4","","11","","17","","78",""
"1994-01-10","1994","01","10","","-13.4","","-28.7","","-21.1","","39.1","","0.0","","0.0","","3.2","","2.6","","12","","33","","48",""
"1994-01-11","1994","01","11","","-20.3","","-30.9","","-25.6","","43.6","","0.0","","0.0","","6.2","","2.4","","13","","","","<31",""
"1994-01-12","1994","01","12","","-20.1","","-29.6","","-24.9","","42.9","","0.0","","0.0","","0.0","T","0.0","T","18","","","","<31",""
"1994-01-13","1994","01","13","","-26.8","","-32.6","","-29.7","","47.7","","0.0","","0.0","","0.0","","0.0","","18","","","","<31",""
"1994-01-14","1994","01","14","","-28.3","","-34.0","","-31.2","","49.2","","0.0","","0.0","","0.0","","0.0","","17","","","","<31",""
"1994-01-15","1994","01","15","","-26.6","","-35.3","","-31.0","","49.0","","0.0","","0.0","","0.0","T","0.0","T","17","","","","<31",""
"1994-01-16","1994","01","16","","-23.8","","-30.5","","-27.2","","45.2","","0.0","","0.0","","1.8","","1.8","","17","","34","","41",""
"1994-01-17","1994","01","17","","-29.8","","-34.2","","-32.0","","50.0","","0.0","","0.0","","0.0","T","0.0","T","18","","32","","43",""
"1994-01-18","1994","01","18","","-30.3","","-35.3","","-32.8","","50.8","","0.0","","0.0","","0.0","T","0.0","T","18","","","","<31",""
"1994-01-19","1994","01","19","","-23.8","","-32.4","","-28.1","","46.1","","0.0","","0.0","","0.0","","0.0","","18","","","","<31",""
"1994-01-20","1994","01","20","","-10.2","","-31.1","","-20.7","","38.7","","0.0","","0.0","","0.0","","0.0","","18","","19","","41",""
"1994-01-21","1994","01","21","","-10.0","","-15.9","","-13.0","","31.0","","0.0","","0.0","","0.0","","0.0","","18","","","","<31",""
"1994-01-22","1994","01","22","","-10.4","","-16.1","","-13.3","","31.3","","0.0","","0.0","","0.0","","0.0","","18","","","","<31",""
"1994-01-23","1994","01","23","","-9.9","","-18.1","","-14.0","","32.0","","0.0","","0.0","","0.0","T","0.0","T","17","","","","<31",""
"1994-01-24","1994","01","24","","-17.5","","-24.8","","-21.2","","39.2","","0.0","","0.0","","0.0","","0.0","","17","","","","<31",""
"1994-01-25","1994","01","25","","-17.0","","-22.1","","-19.6","","37.6","","0.0","","0.0","","0.0","","0.0","","17","","","","<31",""
"1994-01-26","1994","01","26","","-9.8","","-18.8","","-14.3","","32.3","","0.0","","0.0","","1.2","","0.6","","17","","17","","37",""
"1994-01-27","1994","01","27","","-7.2","","-10.7","","-9.0","","27.0","","0.0","","0.0","","0.0","T","0.0","T","18","","","","<31",""
"1994-01-28","1994","01","28","","-8.2","","-26.4","","-17.3","","35.3","","0.0","","0.0","","0.0","T","0.0","T","18","","2","","41",""
"1994-01-29","1994","01","29","","-22.5","","-31.6","","-27.1","","45.1","","0.0","","0.0","","0.0","T","0.0","T","18","","","","<31",""
"1994-01-30","1994","01","30","","-16.8","","-30.1","","-23.5","","41.5","","0.0","","0.0","","0.0","T","0.0","T","18","","","","<31",""
"1994-01-31","1994","01","31","","-14.2","","-19.8","","-17.0","","35.0","","0.0","","0.0","","0.2","","0.2","","17","","","","<31",""
"1994-02-01","1994","02","01","","-15.7","","-22.0","","-18.9","","36.9","","0.0","","0.0","","0.6","","0.6","","17","","","","<31",""
"1994-02-02","1994","02","02","","-14.5","","-23.4","","-19.0","","37.0","","0.0","","0.0","","0.0","T","0.0","T","17","","26","","57",""
"1994-02-03","1994","02","03","","-20.2","","-25.3","","-22.8","","40.8","","0.0","","0.0","","0.4","","0.4","","17","","","","<31",""
"1994-02-04","1994","02","04","","-15.8","","-23.9","","-19.9","","37.9","","0.0","","0.0","","0.4","","0.4","","17","","33","","41",""
"1994-02-05","1994","02","05","","-19.7","","-27.7","","-23.7","","41.7","","0.0","","0.0","","0.0","T","0.0","T","17","","2","","37",""
"1994-02-06","1994","02","06","","-26.5","","-32.0","","-29.3","","47.3","","0.0","","0.0","","0.0","T","0.0","T","17","","30","","43",""
"1994-02-07","1994","02","07","","-26.0","","-35.2","","-30.6","","48.6","","0.0","","0.0","","0.0","","0.0","","16","","","","<31",""
"1994-02-08","1994","02","08","","-22.1","","-28.5","","-25.3","","43.3","","0.0","","0.0","","0.4","","0.2","","16","","","","<31",""
"1994-02-09","1994","02","09","","-24.4","","-33.5","","-29.0","","47.0","","0.0","","0.0","","0.0","","0.0","","16","","16","","52",""
"1994-02-10","1994","02","10","","-19.5","","-26.2","","-22.9","","40.9","","0.0","","0.0","","1.2","","1.0","","16","","16","","50",""
"1994-02-11","1994","02","11","","-15.6","","-26.9","","-21.3","","39.3","","0.0","","0.0","","0.0","T","0.0","T","17","","17","","39",""
"1994-02-12","1994","02","12","","-14.7","","-24.3","","-19.5","","37.5","","0.0","","0.0","","0.0","T","0.0","T","17","","","","<31",""
"1994-02-13","1994","02","13","","-9.4","","-18.2","","-13.8","","31.8","","0.0","","0.0","","0.0","","0.0","","17","","18","","54",""
"1994-02-14","1994","02","14","","-2.6","","-15.0","","-8.8","","26.8","","0.0","","0.0","","0.8","","0.8","","17","","18","","48",""
"1994-02-15","1994","02","15","","-8.3","","-19.5","","-13.9","","31.9","","0.0","","0.0","","0.0","T","0.0","T","17","","16","","63",""
"1994-02-16","1994","02","16","","0.0","","-11.4","","-5.7","","23.7","","0.0","","0.0","","0.0","T","0.0","T","17","","17","","69",""
"1994-02-17","1994","02","17","","1.6","","-12.6","","-5.5","","23.5","","0.0","","0.0","","0.0","","0.0","","16","","17","","57",""
"1994-02-18","1994","02","18","","3.6","","-6.0","","-1.2","","19.2","","0.0","","0.0","T","0.0","","0.0","T","16","","18","","69",""
"1994-02-19","1994","02","19","","-6.0","","-19.7","","-12.9","","30.9","","0.0","","0.0","T","0.6","","0.6","","15","","30","","57",""
"1994-02-20","1994","02","20","","-13.7","","-23.7","","-18.7","","36.7","","0.0","","0.0","","0.0","","0.0","","14","","","","<31",""
"1994-02-21","1994","02","21","","-19.0","","-26.7","","-22.9","","40.9","","0.0","","0.0","","0.0","","0.0","","14","","","","<31",""
"1994-02-22","1994","02","22","","-17.3","","-27.9","","-22.6","","40.6","","0.0","","0.0","","0.0","T","0.0","T","14","","","","<31",""
"1994-02-23","1994","02","23","","-11.2","","-19.4","","-15.3","","33.3","","0.0","","0.0","","0.0","","0.0","","13","","","","<31",""
"1994-02-24","1994","02","24","","-9.0","","-21.4","","-15.2","","33.2","","0.0","","0.0","","0.4","","0.4","","13","","7","","37",""
"1994-02-25","1994","02","25","","-10.8","","-18.5","","-14.7","","32.7","","0.0","","0.0","","0.8","","0.8","","14","","3","","35",""
"1994-02-26","1994","02","26","","-13.4","","-24.4","","-18.9","","36.9","","0.0","","0.0","","0.0","","0.0","","14","","","","<31",""
"1994-02-27","1994","02","27","","-10.0","","-18.1","","-14.1","","32.1","","0.0","","0.0","","0.0","T","0.0","T","13","","18","","37",""
"1994-02-28","1994","02","28","","-6.3","","-17.8","","-12.1","","30.1","","0.0","","0.0","","0.0","","0.0","","13","","","","<31",""
"1994-03-01","1994","03","01","","0.8","","-12.0","","-5.6","","23.6","","0.0","","0.0","T","1.4","","1.2","","12","","18","","59",""
"1994-03-02","1994","03","02","","5.8","","-9.8","","-2.0","","20.0","","0.0","","0.0","","0.0","","0.0","","12","","18","","33",""
"1994-03-03","1994","03","03","","6.2","","-3.9","","1.2","","16.8","","0.0","","0.0","","0.0","","0.0","","9","","","","<31",""
"1994-03-04","1994","03","04","","7.8","","-1.9","","3.0","","15.0","","0.0","","0.0","","0.0","","0.0","","3","","","","<31",""
"1994-03-05","1994","03","05","","7.1","","-3.4","","1.9","","16.1","","0.0","","0.0","T","0.0","","0.0","T","1","","","","<31",""
"1994-03-06","1994","03","06","","2.9","","-5.0","","-1.1","","19.1","","0.0","","0.0","T","0.0","T","0.0","T","1","","28","","56",""
"1994-03-07","1994","03","07","","-5.0","","-15.5","","-10.3","","28.3","","0.0","","0.0","","0.6","","0.6","","1","","31","","54",""
"1994-03-08","1994","03","08","","-9.9","","-16.6","","-13.3","","31.3","","0.0","","0.0","","0.0","T","0.0","T","1","","32","","37",""
"1994-03-09","1994","03","09","","-4.7","","-16.3","","-10.5","","28.5","","0.0","","0.0","","0.4","","0.4","","1","","34","","39",""
"1994-03-10","1994","03","10","","-8.4","","-20.4","","-14.4","","32.4","","0.0","","0.0","","0.0","","0.0","","1","","","","<31",""
"1994-03-11","1994","03","11","","0.6","","-9.0","","-4.2","","22.2","","0.0","","0.0","","0.0","","0.0","","1","","16","","48",""
"1994-03-12","1994","03","12","","5.5","","-7.8","","-1.2","","19.2","","0.0","","0.0","","0.0","","0.0","","0","T","","","<31",""
"1994-03-13","1994","03","13","","4.7","","-7.9","","-1.6","","19.6","","0.0","","0.4","","0.0","","0.4","","0","T","19","","59",""
"1994-03-14","1994","03","14","","8.0","","-4.2","","1.9","","16.1","","0.0","","0.0","","0.0","","0.0","","0","T","32","","63",""
"1994-03-15","1994","03","15","","-2.1","","-9.8","","-6.0","","24.0","","0.0","","0.0","","0.0","","0.0","","0","T","","","<31",""
"1994-03-16","1994","03","16","","2.5","","-8.3","","-2.9","","20.9","","0.0","","0.0","","0.0","","0.0","","0","T","15","","52",""
"1994-03-17","1994","03","17","","1.7","","-3.5","","-0.9","","18.9","","0.0","","0.0","T","0.0","T","0.0","T","0","T","17","","61",""
"1994-03-18","1994","03","18","","3.1","","-3.6","","-0.3","","18.3","","0.0","","0.0","T","0.2","","0.2","","0","T","","","<31",""
"1994-03-19","1994","03","19","","8.9","","-1.5","","3.7","","14.3","","0.0","","0.0","","0.0","","0.0","","0","T","12","","44",""
"1994-03-20","1994","03","20","","9.2","","1.3","","5.3","","12.7","","0.0","","1.8","","0.0","","1.8","","0","T","26","","43",""
"1994-03-21","1994","03","21","","9.3","","-4.6","","2.4","","15.6","","0.0","","0.0","","0.0","","0.0","","0","","25","","39",""
"1994-03-22","1994","03","22","","-2.8","","-8.3","","-5.6","","23.6","","0.0","","0.0","","1.4","","1.4","","1","","30","","39",""
"1994-03-23","1994","03","23","","-2.3","","-9.6","","-6.0","","24.0","","0.0","","0.0","","0.0","","0.0","","0","T","2","","41",""
"1994-03-24","1994","03","24","","3.1","","-9.9","","-3.4","","21.4","","0.0","","0.0","","0.0","","0.0","","0","","","","<31",""
"1994-03-25","1994","03","25","","5.8","","-4.6","","0.6","","17.4","","0.0","","0.0","","0.0","","0.0","","0","","20","","44",""
"1994-03-26","1994","03","26","","2.6","","-2.0","","0.3","","17.7","","0.0","","0.0","","0.0","T","0.0","T","0","","","","<31",""
"1994-03-27","1994","03","27","","1.3","","-8.7","","-3.7","","21.7","","0.0","","0.0","","0.0","T","0.0","T","0","T","36","","48",""
"1994-03-28","1994","03","28","","0.1","","-11.4","","-5.7","","23.7","","0.0","","0.0","","0.0","","0.0","","0","T","35","","33",""
"1994-03-29","1994","03","29","","2.3","","-11.3","","-4.5","","22.5","","0.0","","0.0","","0.0","","0.0","","0","","","","<31",""
"1994-03-30","1994","03","30","","12.4","","-1.8","","5.3","","12.7","","0.0","","0.0","","0.0","","0.0","","0","","","","<31",""
"1994-03-31","1994","03","31","","13.0","","-4.5","","4.3","","13.7","","0.0","","0.0","","0.0","","0.0","","0","","24","","35",""
"1994-04-01","1994","04","01","","3.7","","-5.4","","-0.9","","18.9","","0.0","","0.0","","7.6","","7.4","","0","","2","","56",""
"1994-04-02","1994","04","02","","-1.0","","-13.7","","-7.4","","25.4","","0.0","","0.0","","0.0","T","0.0","T","8","","","","<31",""
"1994-04-03","1994","04","03","","5.3","","-8.7","","-1.7","","19.7","","0.0","","0.0","","0.0","","0.0","","3","","3","","57",""
"1994-04-04","1994","04","04","","-5.0","","-13.4","","-9.2","","27.2","","0.0","","0.0","","0.0","","0.0","","0","","30","","43",""
"1994-04-05","1994","04","05","","3.3","","-10.2","","-3.5","","21.5","","0.0","","0.0","","0.0","","0.0","","0","","29","","33",""
"1994-04-06","1994","04","06","","2.9","","-9.3","","-3.2","","21.2","","0.0","","0.0","","0.0","","0.0","","0","","","","<31",""
"1994-04-07","1994","04","07","","11.0","","-4.0","","3.5","","14.5","","0.0","","0.0","","0.0","T","0.0","T","0","","10","","35",""
"1994-04-08","1994","04","08","","8.4","","0.7","","4.6","","13.4","","0.0","","6.4","","0.0","T","6.4","","0","","15","","41",""
"1994-04-09","1994","04","09","","7.9","","0.4","","4.2","","13.8","","0.0","","0.2","","1.6","","1.8","","0","","30","","48",""
"1994-04-10","1994","04","10","","11.3","","-3.7","","3.8","","14.2","","0.0","","0.0","","0.0","","0.0","","0","","","","<31",""
"1994-04-11","1994","04","11","","16.9","","2.7","","9.8","","8.2","","0.0","","0.0","","0.0","","0.0","","0","","21","","56",""
"1994-04-12","1994","04","12","","19.0","","2.2","","10.6","","7.4","","0.0","","0.0","","0.0","","0.0","","0","","20","","41",""
"1994-04-13","1994","04","13","","14.9","","5.1","","10.0","","8.0","","0.0","","0.0","T","0.0","","0.0","T","0","","19","","35",""
"1994-04-14","1994","04","14","","15.5","","1.1","","8.3","","9.7","","0.0","","3.0","","0.0","","3.0","","0","","35","","41",""
"1994-04-15","1994","04","15","","11.7","","-1.0","","5.4","","12.6","","0.0","","2.8","","0.0","","2.8","","0","","31","","44",""
"1994-04-16","1994","04","16","","13.3","","-3.6","","4.9","","13.1","","0.0","","0.0","","0.0","","0.0","","0","","20","","50","E"
"1994-04-17","1994","04","17","","20.4","","-1.9","","9.3","","8.7","","0.0","","0.0","","0.0","","0.0","","0","","18","","48","E"
"1994-04-18","1994","04","18","","14.2","","3.5","","8.9","","9.1","","0.0","","0.0","T","0.0","","0.0","T","0","","33","","74","E"
"1994-04-19","1994","04","19","","18.1","","4.6","","11.4","","6.6","","0.0","","0.0","","0.0","","0.0","","0","","32","","65","E"
"1994-04-20","1994","04","20","","12.8","","4.7","","8.8","","9.2","","0.0","","0.0","","0.0","","0.0","","0","","","","<31",""
"1994-04-21","1994","04","21","","15.5","","-4.8","","5.4","","12.6","","0.0","","0.0","","0.0","","0.0","","0","","","","<31",""
"1994-04-22","1994","04","22","","19.9","","2.1","","11.0","","7.0","","0.0","","0.0","T","0.0","","0.0","T","0","","18","","33","E"
"1994-04-23","1994","04","23","","25.5","","2.1","","13.8","","4.2","","0.0","","0.0","T","0.0","","0.0","","0","","30","","67","E"
"1994-04-24","1994","04","24","","5.1","","-1.4","","1.9","","16.1","","0.0","","0.0","","0.0","","0.0","","0","","34","","35","E"
"1994-04-25","1994","04","25","","6.6","","-1.4","","2.6","","15.4","","0.0","","0.0","","0.0","","0.0","","0","","1","","46","E"
"1994-04-26","1994","04","26","","4.6","","-3.7","","0.5","","17.5","","0.0","","0.0","","0.0","","0.0","","0","","2","","78","E"
"1994-04-27","1994","04","27","","3.9","","-9.0","","-2.6","","20.6","","0.0","","0.0","","0.0","","0.0","","0","","1","","32","E"
"1994-04-28","1994","04","28","","8.4","","-9.2","","-0.4","","18.4","","0.0","","0.0","","0.0","","0.0","","0","","14","","35","E"
"1994-04-29","1994","04","29","","10.5","","-3.6","","3.5","","14.5","","0.0","","0.0","","0.0","","0.0","","0","","","","<31",""
"1994-04-30","1994","04","30","","12.8","","-4.2","","4.3","","13.7","","0.0","","0.0","","0.0","","0.0","","0","","","","<31",""
"1994-05-01","1994","05","01","","14.6","","-4.9","","4.9","","13.1","","0.0","","0.0","","0.0","","0.0","","0","","","","<31",""
"1994-05-02","1994","05","02","","17.9","","1.0","","9.5","","8.5","","0.0","","0.0","","0.0","","0.0","","0","","21","","46","E"
"1994-05-03","1994","05","03","","20.9","","-0.2","","10.4","","7.6","","0.0","","6.8","","0.0","","6.8","","0","","28","","48","E"
"1994-05-04","1994","05","04","","7.8","","-2.3","","2.8","","15.2","","0.0","","0.0","","0.0","","0.0","","0","","32","","35","E"
"1994-05-05","1994","05","05","","9.5","","-1.9","","3.8","","14.2","","0.0","","0.0","","0.0","","0.0","","0","","","","<31",""
"1994-05-06","1994","05","06","","14.5","","-1.2","","6.7","","11.3","","0.0","","0.0","","0.0","","0.0","","0","","","","<31",""
"1994-05-07","1994","05","07","","22.1","","2.0","","12.1","","5.9","","0.0","","0.0","","0.0","","0.0","","0","","21","","56","E"
"1994-05-08","1994","05","08","","17.3","","5.5","","11.4","","6.6","","0.0","","0.0","T","0.0","","0.0","T","0","","32","","78","E"
"1994-05-09","1994","05","09","","15.9","","2.7","","9.3","","8.7","","0.0","","0.0","T","0.0","","0.0","T","0","","31","","56","E"
"1994-05-10","1994","05","10","","20.8","","1.2","","11.0","","7.0","","0.0","","0.4","","0.0","","0.4","","0","","18","","57",""
"1994-05-11","1994","05","11","","14.1","","0.5","","7.3","","10.7","","0.0","","0.8","","0.0","","0.8","","0","","33","","56","E"
"1994-05-12","1994","05","12","","17.9","","-2.1","","7.9","","10.1","","0.0","","0.0","","0.0","","0.0","","0","","","","<31",""
"1994-05-13","1994","05","13","","23.7","","10.8","","17.3","","0.7","","0.0","","2.8","","0.0","","2.8","","0","","13","","48","E"
"1994-05-14","1994","05","14","","21.3","","2.2","","11.8","","6.2","","0.0","","0.0","","0.0","","0.0","","0","","35","","56","E"
"1994-05-15","1994","05","15","","14.6","","-1.6","","6.5","","11.5","","0.0","","0.0","","0.0","","0.0","","0","","","","<31",""
"1994-05-16","1994","05","16","","14.3","","6.3","","10.3","","7.7","","0.0","","0.4","","0.0","","0.4","","0","","13","","56","E"
"1994-05-17","1994","05","17","","26.1","","10.3","","18.2","","0.0","","0.2","","0.0","T","0.0","","0.0","T","0","","15","","74","E"
"1994-05-18","1994","05","18","","31.8","","16.8","","24.3","","0.0","","6.3","","23.8","","0.0","","23.8","","0","","20","","69","E"
"1994-05-19","1994","05","19","","20.0","","8.0","","14.0","","4.0","","0.0","","19.3","","0.0","","19.3","","0","","3","","50","E"
"1994-05-20","1994","05","20","","27.6","","7.4","","17.5","","0.5","","0.0","","4.4","","0.0","","4.4","","0","","30","","33","E"
"1994-05-21","1994","05","21","","17.1","","7.5","","12.3","","5.7","","0.0","","3.4","","0.0","","3.4","","0","","31","","35","E"
"1994-05-22","1994","05","22","","22.1","","8.8","","15.5","","2.5","","0.0","","0.8","","0.0","","0.8","","0","","","","<31",""
"1994-05-23","1994","05","23","","21.4","","9.1","","15.3","","2.7","","0.0","","0.4","","0.0","","0.4","","0","","","","<31",""
"1994-05-24","1994","05","24","","21.1","","8.2","","14.7","","3.3","","0.0","","5.4","","0.0","","5.4","","0","","","","<31",""
"1994-05-25","1994","05","25","","17.8","","4.7","","11.3","","6.7","","0.0","","0.0","","0.0","","0.0","","0","","1","","46",""
"1994-05-26","1994","05","26","","19.6","","1.7","","10.7","","7.3","","0.0","","0.0","","0.0","","0.0","","0","","","","<31",""
"1994-05-27","1994","05","27","","25.1","","8.2","","16.7","","1.3","","0.0","","0.0","","0.0","","0.0","","0","","","","<31",""
"1994-05-28","1994","05","28","","29.3","","14.2","","21.8","","0.0","","3.8","","0.0","T","0.0","","0.0","T","0","","28","","44",""
"1994-05-29","1994","05","29","","20.1","","10.0","","15.1","","2.9","","0.0","","0.0","","0.0","","0.0","","0","","","","<31",""
"1994-05-30","1994","05","30","","23.5","","13.3","","18.4","","0.0","","0.4","","1.0","","0.0","","1.0","","0","","27","","69","E"
"1994-05-31","1994","05","31","","22.8","","9.7","","16.3","","1.7","","0.0","","0.0","T","0.0","","0.0","T","0","","33","","43","E"
"1994-06-01","1994","06","01","","21.1","","5.1","","13.1","","4.9","","0.0","","0.0","","0.0","","0.0","","0","","","","<31",""
"1994-06-02","1994","06","02","","23.9","","9.6","","16.8","","1.2","","0.0","","0.0","T","0.0","","0.0","T","0","","","","<31",""
"1994-06-03","1994","06","03","","26.4","","13.7","","20.1","","0.0","","2.1","","0.0","","0.0","","0.0","","0","","24","","44","E"
"1994-06-04","1994","06","04","","26.6","","10.0","","18.3","","0.0","","0.3","","0.0","","0.0","","0.0","","0","","","","<31",""
"1994-06-05","1994","06","05","","27.9","","11.3","","19.6","","0.0","","1.6","","0.0","T","0.0","","0.0","T","0","","30","","43","E"
"1994-06-06","1994","06","06","","23.3","","13.1","","18.2","","0.0","","0.2","","0.4","","0.0","","0.4","","0","","5","","43","E"
"1994-06-07","1994","06","07","","22.6","","8.5","","15.6","","2.4","","0.0","","0.0","","0.0","","0.0","","0","","9","","37","E"
"1994-06-08","1994","06","08","","23.2","","9.8","","16.5","","1.5","","0.0","","0.0","","0.0","","0.0","","0","","","","<31",""
"1994-06-09","1994","06","09","","19.2","","10.9","","15.1","","2.9","","0.0","","5.2","","0.0","","5.2","","0","","11","","48","E"
"1994-06-10","1994","06","10","","17.0","","11.4","","14.2","","3.8","","0.0","","11.4","","0.0","","11.4","","0","","","","<31",""
"1994-06-11","1994","06","11","","22.4","","10.9","","16.7","","1.3","","0.0","","0.0","T","0.0","","0.0","T","0","","30","","43","E"
"1994-06-12","1994","06","12","","25.8","","12.6","","19.2","","0.0","","1.2","","0.0","","0.0","","0.0","","0","","","","<31",""
"1994-06-13","1994","06","13","","23.7","","13.0","","18.4","","0.0","","0.4","","4.4","","0.0","","4.4","","0","","","","<31",""
"1994-06-14","1994","06","14","","24.8","","15.4","","20.1","","0.0","","2.1","","1.8","","0.0","","1.8","","0","","24","","44",""
"1994-06-15","1994","06","15","","19.8","","11.7","","15.8","","2.2","","0.0","","0.0","","0.0","","0.0","","0","","24","","33",""
"1994-06-16","1994","06","16","","22.9","","11.1","","17.0","","1.0","","0.0","","0.0","","0.0","","0.0","","0","","","","<31",""
"1994-06-17","1994","06","17","","23.5","","12.5","","18.0","","0.0","","0.0","","0.0","","0.0","","0.0","","0","","","","<31",""
"1994-06-18","1994","06","18","","21.7","","9.2","","15.5","","2.5","","0.0","","0.8","","0.0","","0.8","","0","","","","<31",""
"1994-06-19","1994","06","19","","24.5","","15.0","","19.8","","0.0","","1.8","","3.1","","0.0","","3.1","","0","","","","<31",""
"1994-06-20","1994","06","20","","26.0","","16.4","","21.2","","0.0","","3.2","","0.0","","0.0","","0.0","","0","","31","","48",""
"1994-06-21","1994","06","21","","26.4","","13.9","","20.2","","0.0","","2.2","","0.0","T","0.0","","0.0","T","0","","","","<31",""
"1994-06-22","1994","06","22","","28.1","","10.2","","19.2","","0.0","","1.2","","0.0","","0.0","","0.0","","0","","","","<31",""
"1994-06-23","1994","06","23","","29.3","","11.4","","20.4","","0.0","","2.4","","2.4","","0.0","","2.4","","0","","","","<31",""
"1994-06-24","1994","06","24","","29.2","","14.9","","22.1","","0.0","","4.1","","0.0","","0.0","","0.0","","0","","","","<31",""
"1994-06-25","1994","06","25","","21.9","","15.0","","18.5","","0.0","","0.5","","10.5","","0.0","","10.5","","0","","","","<31",""
"1994-06-26","1994","06","26","","24.7","","13.6","","19.2","","0.0","","1.2","","0.4","","0.0","","0.4","","0","","","","<31",""
"1994-06-27","1994","06","27","","20.1","","14.2","","17.2","","0.8","","0.0","","30.2","","0.0","","30.2","","0","","","","<31",""
"1994-06-28","1994","06","28","","24.4","","12.1","","18.3","","0.0","","0.3","","0.6","","0.0","","0.6","","0","","33","","54","E"
"1994-06-29","1994","06","29","","20.1","","11.2","","15.7","","2.3","","0.0","","0.0","","0.0","","0.0","","0","","","","<31",""
"1994-06-30","1994","06","30","","22.6","","12.2","","17.4","","0.6","","0.0","","8.8","","0.0","","8.8","","0","","30","","50","E"
"1994-07-01","1994","07","01","","22.1","","8.6","","15.4","","2.6","","0.0","","0.0","","0.0","","0.0","","0","","","","",""
"1994-07-02","1994","07","02","","23.2","","8.9","","16.1","","1.9","","0.0","","0.0","","0.0","","0.0","","0","","","","",""
"1994-07-03","1994","07","03","","22.8","","15.0","","18.9","","0.0","","0.9","","68.2","","0.0","","68.2","","0","","","","",""
"1994-07-04","1994","07","04","","25.8","","16.7","","21.3","","0.0","","3.3","","0.0","T","0.0","","0.0","T","0","","","","",""
"1994-07-05","1994","07","05","","26.2","","15.0","","20.6","","0.0","","2.6","","0.0","","0.0","","0.0","","0","","","","",""
"1994-07-06","1994","07","06","","21.2","","9.3","","15.3","","2.7","","0.0","","0.0","","0.0","","0.0","","0","","","","",""
"1994-07-07","1994","07","07","","17.1","","9.3","","13.2","","4.8","","0.0","","0.0","","0.0","","0.0","","0","","","","",""
"1994-07-08","1994","07","08","","21.5","","11.4","","16.5","","1.5","","0.0","","0.0","","0.0","","0.0","","0","","","","",""
"1994-07-09","1994","07","09","","23.9","","8.9","","16.4","","1.6","","0.0","","0.0","","0.0","","0.0","","0","","","","",""
"1994-07-10","1994","07","10","","26.3","","14.6","","20.5","","0.0","","2.5","","29.8","","0.0","","29.8","","0","","","","",""
"1994-07-11","1994","07","11","","24.6","","16.6","","20.6","","0.0","","2.6","","4.0","","0.0","","4.0","","0","","","","",""
"1994-07-12","1994","07","12","","20.2","","11.3","","15.8","","2.2","","0.0","","0.0","T","0.0","","0.0","T","0","","","","",""
"1994-07-13","1994","07","13","","21.9","","9.6","","15.8","","2.2","","0.0","","0.0","T","0.0","","0.0","T","0","","","","",""
"1994-07-14","1994","07","14","","21.5","","12.9","","17.2","","0.8","","0.0","","11.1","","0.0","","11.1","","0","","","","",""
"1994-07-15","1994","07","15","","25.1","","12.0","","18.6","","0.0","","0.6","","0.2","","0.0","","0.2","","0","","","","",""
"1994-07-16","1994","07","16","","21.0","","10.6","","15.8","","2.2","","0.0","","3.4","","0.0","","3.4","","0","","","","",""
"1994-07-17","1994","07","17","","23.9","","9.6","","16.8","","1.2","","0.0","","0.7","","0.0","","0.7","","0","","","","",""
"1994-07-18","1994","07","18","","24.1","","15.3","","19.7","","0.0","","1.7","","6.9","","0.0","","6.9","","0","","","","",""
"1994-07-19","1994","07","19","","21.7","","16.2","","19.0","","0.0","","1.0","","0.0","","0.0","","0.0","","0","","","","",""
"1994-07-20","1994","07","20","","23.5","","16.2","","19.9","","0.0","","1.9","","2.5","","0.0","","2.5","","0","","","","",""
"1994-07-21","1994","07","21","","26.5","","14.5","","20.5","","0.0","","2.5","","0.5","","0.0","","0.5","","0","","","","",""
"1994-07-22","1994","07","22","","28.6","","11.6","","20.1","","0.0","","2.1","","15.2","","0.0","","15.2","","0","","","","",""
"1994-07-23","1994","07","23","","24.1","","12.1","","18.1","","0.0","","0.1","","0.0","T","0.0","","0.0","T","0","","","","",""
"1994-07-24","1994","07","24","","22.6","","11.0","","16.8","","1.2","","0.0","","0.0","T","0.0","","0.0","T","0","","","","",""
"1994-07-25","1994","07","25","","21.9","","10.0","","16.0","","2.0","","0.0","","0.0","T","0.0","","0.0","T","0","","","","",""
"1994-07-26","1994","07","26","","23.7","","9.6","","16.7","","1.3","","0.0","","0.0","","0.0","","0.0","","0","","","","",""
"1994-07-27","1994","07","27","","26.2","","8.6","","17.4","","0.6","","0.0","","0.0","","0.0","","0.0","","0","","","","",""
"1994-07-28","1994","07","28","","29.7","","13.1","","21.4","","0.0","","3.4","","0.0","","0.0","","0.0","","0","","","","",""
"1994-07-29","1994","07","29","","30.3","","14.9","","22.6","","0.0","","4.6","","0.0","","0.0","","0.0","","0","","","","",""
"1994-07-30","1994","07","30","","25.8","","15.1","","20.5","","0.0","","2.5","","5.8","","0.0","","5.8","","0","","","","",""
"1994-07-31","1994","07","31","","26.4","","13.8","","20.1","","0.0","","2.1","","0.0","","0.0","","0.0","","0","","","","",""
"1994-08-01","1994","08","01","","28.7","","12.9","","20.8","","0.0","","2.8","","0.0","","0.0","","0.0","","0","","","","",""
"1994-08-02","1994","08","02","","30.6","","17.3","","24.0","","0.0","","6.0","","2.0","","0.0","","2.0","","0","","","","",""
"1994-08-03","1994","08","03","","22.7","","10.1","","16.4","","1.6","","0.0","","3.2","","0.0","","3.2","","0","","","","",""
"1994-08-04","1994","08","04","","20.4","","5.9","","13.2","","4.8","","0.0","","0.0","","0.0","","0.0","","0","","","","",""
"1994-08-05","1994","08","05","","25.3","","9.1","","17.2","","0.8","","0.0","","0.0","","0.0","","0.0","","0","","","","",""
"1994-08-06","1994","08","06","","27.5","","13.5","","20.5","","0.0","","2.5","","7.8","","0.0","","7.8","","0","","","","",""
"1994-08-07","1994","08","07","","17.4","","10.4","","13.9","","4.1","","0.0","","28.1","","0.0","","28.1","","0","","","","",""
"1994-08-08","1994","08","08","","18.1","","6.1","","12.1","","5.9","","0.0","","0.0","","0.0","","0.0","","0","","","","",""
"1994-08-09","1994","08","09","","20.0","","5.6","","12.8","","5.2","","0.0","","0.0","","0.0","","0.0","","0","","","","",""
"1994-08-10","1994","08","10","","21.9","","8.0","","15.0","","3.0","","0.0","","0.2","","0.0","","0.2","","0","","","","",""
"1994-08-11","1994","08","11","","26.3","","10.1","","18.2","","0.0","","0.2","","33.1","","0.0","","33.1","","0","","","","",""
"1994-08-12","1994","08","12","","26.8","","9.6","","18.2","","0.0","","0.2","","6.4","","0.0","","6.4","","0","","","","",""
"1994-08-13","1994","08","13","","18.0","","7.2","","12.6","","5.4","","0.0","","0.0","T","0.0","","0.0","T","0","","","","",""
"1994-08-14","1994","08","14","","21.9","","7.9","","14.9","","3.1","","0.0","","0.0","T","0.0","","0.0","T","0","","","","",""
"1994-08-15","1994","08","15","","29.4","","9.8","","19.6","","0.0","","1.6","","0.0","","0.0","","0.0","","0","","","","",""
"1994-08-16","1994","08","16","","25.4","","13.9","","19.7","","0.0","","1.7","","0.0","","0.0","","0.0","","0","","","","",""
"1994-08-17","1994","08","17","","21.6","","10.6","","16.1","","1.9","","0.0","","0.0","T","0.0","","0.0","T","0","","","","",""
"1994-08-18","1994","08","18","","23.7","","9.7","","16.7","","1.3","","0.0","","3.0","","0.0","","3.0","","0","","","","",""
"1994-08-19","1994","08","19","","23.1","","9.8","","16.5","","1.5","","0.0","","0.0","","0.0","","0.0","","0","","","","",""
"1994-08-20","1994","08","20","","25.0","","6.7","","15.9","","2.1","","0.0","","0.0","","0.0","","0.0","","0","","","","",""
"1994-08-21","1994","08","21","","27.6","","11.2","","19.4","","0.0","","1.4","","0.0","","0.0","","0.0","","0","","","","",""
"1994-08-22","1994","08","22","","27.8","","14.8","","21.3","","0.0","","3.3","","0.0","","0.0","","0.0","","0","","","","",""
"1994-08-23","1994","08","23","","26.9","","14.9","","20.9","","0.0","","2.9","","17.8","","0.0","","17.8","","0","","","","",""
"1994-08-24","1994","08","24","","29.0","","11.1","","20.1","","0.0","","2.1","","0.4","","0.0","","0.4","","0","","","","",""
"1994-08-25","1994","08","25","","26.1","","12.5","","19.3","","0.0","","1.3","","4.0","","0.0","","4.0","","0","","","","",""
"1994-08-26","1994","08","26","","22.6","","8.0","","15.3","","2.7","","0.0","","5.9","","0.0","","5.9","","0","","","","",""
"1994-08-27","1994","08","27","","15.4","","9.5","","12.5","","5.5","","0.0","","7.9","","0.0","","7.9","","0","","","","",""
"1994-08-28","1994","08","28","","18.6","","8.3","","13.5","","4.5","","0.0","","0.6","","0.0","","0.6","","0","","","","",""
"1994-08-29","1994","08","29","","17.1","","8.8","","13.0","","5.0","","0.0","","2.5","","0.0","","2.5","","0","","","","",""
"1994-08-30","1994","08","30","","18.2","","7.1","","12.7","","5.3","","0.0","","0.0","","0.0","","0.0","","0","","","","",""
"1994-08-31","1994","08","31","","17.4","","4.4","","10.9","","7.1","","0.0","","0.2","","0.0","","0.2","","0","","","","",""
"1994-09-01","1994","09","01","","19.6","","4.5","","12.1","","5.9","","0.0","","0.0","","0.0","","0.0","","0","","","","",""
"1994-09-02","1994","09","02","","20.8","","4.1","","12.5","","5.5","","0.0","","0.0","","0.0","","0.0","","0","","","","",""
"1994-09-03","1994","09","03","","20.4","","4.6","","12.5","","5.5","","0.0","","15.0","","0.0","","15.0","","0","","","","",""
"1994-09-04","1994","09","04","","21.1","","14.6","","17.9","","0.1","","0.0","","16.8","","0.0","","16.8","","0","","","","",""
"1994-09-05","1994","09","05","","20.7","","9.6","","15.2","","2.8","","0.0","","4.2","","0.0","","4.2","","0","","","","",""
"1994-09-06","1994","09","06","","25.0","","9.5","","17.3","","0.7","","0.0","","0.0","","0.0","","0.0","","0","","","","",""
"1994-09-07","1994","09","07","","24.0","","7.9","","16.0","","2.0","","0.0","","0.0","","0.0","","0.0","","0","","","","",""
"1994-09-08","1994","09","08","","25.8","","8.9","","17.4","","0.6","","0.0","","0.0","T","0.0","","0.0","T","0","","","","",""
"1994-09-09","1994","09","09","","30.1","","14.6","","22.4","","0.0","","4.4","","0.0","","0.0","","0.0","","0","","","","",""
"1994-09-10","1994","09","10","","28.7","","15.0","","21.9","","0.0","","3.9","","0.0","","0.0","","0.0","","0","","","","",""
"1994-09-11","1994","09","11","","18.1","","6.7","","12.4","","5.6","","0.0","","16.0","","0.0","","16.0","","0","","","","",""
"1994-09-12","1994","09","12","","17.9","","3.7","","10.8","","7.2","","0.0","","0.0","","0.0","","0.0","","0","","","","",""
"1994-09-13","1994","09","13","","23.3","","4.8","","14.1","","3.9","","0.0","","0.0","","0.0","","0.0","","0","","","","",""
"1994-09-14","1994","09","14","","22.3","","11.2","","16.8","","1.2","","0.0","","0.0","T","0.0","","0.0","T","0","","","","",""
"1994-09-15","1994","09","15","","20.6","","12.7","","16.7","","1.3","","0.0","","10.6","","0.0","","10.6","","0","","","","",""
"1994-09-16","1994","09","16","","21.2","","9.6","","15.4","","2.6","","0.0","","0.0","","0.0","","0.0","","0","","","","",""
"1994-09-17","1994","09","17","","26.4","","9.6","","18.0","","0.0","","0.0","","0.0","","0.0","","0.0","","0","","","","",""
"1994-09-18","1994","09","18","","26.8","","9.0","","17.9","","0.1","","0.0","","0.0","","0.0","","0.0","","0","","","","",""
"1994-09-19","1994","09","19","","27.8","","10.9","","19.4","","0.0","","1.4","","0.0","","0.0","","0.0","","0","","","","",""
"1994-09-20","1994","09","20","","23.7","","10.8","","17.3","","0.7","","0.0","","5.6","","0.0","","5.6","","0","","","","",""
"1994-09-21","1994","09","21","","14.2","","4.4","","9.3","","8.7","","0.0","","1.1","","0.0","","1.1","","0","","","","",""
"1994-09-22","1994","09","22","","13.6","","3.7","","8.7","","9.3","","0.0","","0.0","","0.0","","0.0","","0","","","","",""
"1994-09-23","1994","09","23","","23.9","","5.1","","14.5","","3.5","","0.0","","0.0","","0.0","","0.0","","0","","","","",""
"1994-09-24","1994","09","24","","20.8","","8.2","","14.5","","3.5","","0.0","","0.0","","0.0","","0.0","","0","","","","",""
"1994-09-25","1994","09","25","","14.3","","3.5","","8.9","","9.1","","0.0","","0.0","","0.0","","0.0","","0","","","","",""
"1994-09-26","1994","09","26","","15.8","","1.5","","8.7","","9.3","","0.0","","0.0","","0.0","","0.0","","0","","","","",""
"1994-09-27","1994","09","27","","16.2","","4.7","","10.5","","7.5","","0.0","","0.3","","0.0","","0.3","","0","","","","",""
"1994-09-28","1994","09","28","","14.3","","1.0","","7.7","","10.3","","0.0","","0.0","","0.0","","0.0","","0","","","","",""
"1994-09-29","1994","09","29","","15.8","","3.8","","9.8","","8.2","","0.0","","0.0","","0.0","","0.0","","0","","","","",""
"1994-09-30","1994","09","30","","14.3","","4.4","","9.4","","8.6","","0.0","","0.0","","0.0","","0.0","","0","","","","",""
"1994-10-01","1994","10","01","","11.8","","2.7","","7.3","","10.7","","0.0","","0.0","","0.0","","0.0","","0","","","","",""
"1994-10-02","1994","10","02","","15.7","","8.5","","12.1","","5.9","","0.0","","0.0","","0.0","","0.0","","0","","","","",""
"1994-10-03","1994","10","03","","10.4","","1.1","","5.8","","12.2","","0.0","","0.0","","0.0","","0.0","","0","","","","",""
"1994-10-04","1994","10","04","","13.7","","-2.6","","5.6","","12.4","","0.0","","0.0","","0.0","","0.0","","0","","","","",""
"1994-10-05","1994","10","05","","13.5","","6.5","","10.0","","8.0","","0.0","","0.0","T","0.0","","0.0","T","0","","","","",""
"1994-10-06","1994","10","06","","15.6","","10.0","","12.8","","5.2","","0.0","","43.3","","0.0","","43.3","","0","","","","",""
"1994-10-07","1994","10","07","","10.3","","4.1","","7.2","","10.8","","0.0","","3.7","","0.0","","3.7","","0","","","","",""
"1994-10-08","1994","10","08","","7.6","","3.7","","5.7","","12.3","","0.0","","0.2","","0.0","","0.2","","0","","","","",""
"1994-10-09","1994","10","09","","12.5","","0.4","","6.5","","11.5","","0.0","","0.0","","0.0","","0.0","","0","","","","",""
"1994-10-10","1994","10","10","","16.2","","5.3","","10.8","","7.2","","0.0","","0.0","","0.0","","0.0","","0","","","","",""
"1994-10-11","1994","10","11","","17.2","","2.3","","9.8","","8.2","","0.0","","0.0","","0.0","","0.0","","0","","","","",""
"1994-10-12","1994","10","12","","13.1","","6.4","","9.8","","8.2","","0.0","","0.0","","0.0","","0.0","","0","","","","",""
"1994-10-13","1994","10","13","","12.6","","4.4","","8.5","","9.5","","0.0","","0.5","","0.0","","0.5","","0","","","","",""
"1994-10-14","1994","10","14","","17.3","","7.9","","12.6","","5.4","","0.0","","0.0","","0.0","","0.0","","0","","","","",""
"1994-10-15","1994","10","15","","17.6","","10.9","","14.3","","3.7","","0.0","","0.0","T","0.0","","0.0","T","0","","","","",""
"1994-10-16","1994","10","16","","13.6","","11.8","","12.7","","5.3","","0.0","","7.8","","0.0","","7.8","","0","","","","",""
"1994-10-17","1994","10","17","","18.1","","11.8","","15.0","","3.0","","0.0","","12.2","","0.0","","12.2","","0","","","","",""
"1994-10-18","1994","10","18","","14.6","","9.6","","12.1","","5.9","","0.0","","17.0","","0.0","","17.0","","0","","","","",""
"1994-10-19","1994","10","19","","9.7","","2.2","","6.0","","12.0","","0.0","","0.9","","0.0","","0.9","","0","","","","",""
"1994-10-20","1994","10","20","","15.8","","0.2","","8.0","","10.0","","0.0","","0.0","","0.0","","0.0","","0","","","","",""
"1994-10-21","1994","10","21","","16.5","","1.3","","8.9","","9.1","","0.0","","0.0","","0.0","","0.0","","0","","","","",""
"1994-10-22","1994","10","22","","11.8","","5.3","","8.6","","9.4","","0.0","","0.0","T","0.0","","0.0","T","0","","","","",""
"1994-10-23","1994","10","23","","5.8","","1.3","","3.6","","14.4","","0.0","","0.4","","0.0","","0.4","","0","","","","",""
"1994-10-24","1994","10","24","","5.5","","-1.3","","2.1","","15.9","","0.0","","0.0","","0.0","T","0.0","T","0","","","","",""
"1994-10-25","1994","10","25","","3.9","","-2.0","","1.0","","17.0","","0.0","","0.0","","0.0","T","0.0","T","0","","","","",""
"1994-10-26","1994","10","26","","10.9","","-0.4","","5.3","","12.7","","0.0","","0.0","","0.0","","0.0","","0","","","","",""
"1994-10-27","1994","10","27","","18.4","","3.6","","11.0","","7.0","","0.0","","0.0","T","0.0","","0.0","T","0","","","","",""
"1994-10-28","1994","10","28","","14.1","","4.4","","9.3","","8.7","","0.0","","1.6","","0.0","","1.6","","0","","","","",""
"1994-10-29","1994","10","29","","9.8","","2.7","","6.3","","11.7","","0.0","","0.0","","0.0","","0.0","","0","","","","",""
"1994-10-30","1994","10","30","","5.9","","-4.3","","0.8","","17.2","","0.0","","0.0","","0.0","","0.0","","0","","","","",""
"1994-10-31","1994","10","31","","6.6","","-6.0","","0.3","","17.7","","0.0","","0.0","","0.0","","0.0","","0","","","","",""
"1994-11-01","1994","11","01","","6.2","","-1.9","","2.2","","15.8","","0.0","","3.2","","0.0","","3.2","","0","","","","",""
"1994-11-02","1994","11","02","","5.8","","0.9","","3.4","","14.6","","0.0","","0.0","","0.0","","0.0","","0","","","","",""
"1994-11-03","1994","11","03","","2.5","","-5.1","","-1.3","","19.3","","0.0","","0.0","","0.0","","0.0","","0","","","","",""
"1994-11-04","1994","11","04","","4.7","","-7.2","","-1.3","","19.3","","0.0","","0.0","","0.0","","0.0","","0","","","","",""
"1994-11-05","1994","11","05","","7.9","","-5.8","","1.1","","16.9","","0.0","","0.0","","0.0","","0.0","","0","","","","",""
"1994-11-06","1994","11","06","","8.1","","-7.4","","0.4","","17.6","","0.0","","0.0","","0.0","","0.0","","0","","","","",""
"1994-11-07","1994","11","07","","9.6","","1.0","","5.3","","12.7","","0.0","","2.8","","0.0","","2.8","","0","","","","",""
"1994-11-08","1994","11","08","","9.6","","-3.7","","3.0","","15.0","","0.0","","0.0","","0.0","","0.0","","0","","","","",""
"1994-11-09","1994","11","09","","7.9","","-6.7","","0.6","","17.4","","0.0","","0.0","","0.0","","0.0","","0","","","","",""
"1994-11-10","1994","11","10","","8.9","","-1.6","","3.7","","14.3","","0.0","","0.0","","0.0","","0.0","","0","","","","",""
"1994-11-11","1994","11","11","","4.9","","1.8","","3.4","","14.6","","0.0","","0.3","","0.0","","0.3","","0","","","","",""
"1994-11-12","1994","11","12","","7.2","","0.2","","3.7","","14.3","","0.0","","6.1","","0.0","","6.1","","0","","","","",""
"1994-11-13","1994","11","13","","7.6","","0.6","","4.1","","13.9","","0.0","","8.6","","0.4","","9.0","","0","","","","",""
"1994-11-14","1994","11","14","","5.2","","-0.2","","2.5","","15.5","","0.0","","0.8","","0.0","","0.8","","0","","","","",""
"1994-11-15","1994","11","15","","6.5","","-0.3","","3.1","","14.9","","0.0","","0.0","","0.0","","0.0","","0","","","","",""
"1994-11-16","1994","11","16","","5.3","","1.8","","3.6","","14.4","","0.0","","0.0","","0.0","","0.0","","0","","","","",""
"1994-11-17","1994","11","17","","1.9","","-3.6","","-0.9","","18.9","","0.0","","0.0","T","7.3","","7.3","","0","","","","",""
"1994-11-18","1994","11","18","","-0.2","","-11.1","","-5.7","","23.7","","0.0","","0.0","","5.2","","5.2","","5","","","","",""
"1994-11-19","1994","11","19","","-4.4","","-13.3","","-8.9","","26.9","","0.0","","0.0","","0.0","","0.0","","8","","","","",""
"1994-11-20","1994","11","20","","0.9","","-5.8","","-2.5","","20.5","","0.0","","0.0","","0.0","","0.0","","7","","","","",""
"1994-11-21","1994","11","21","","0.6","","-13.8","","-6.6","","24.6","","0.0","","0.0","","0.0","T","0.0","T","5","","","","",""
"1994-11-22","1994","11","22","","-4.8","","-12.6","","-8.7","","26.7","","0.0","","0.0","","0.0","T","0.0","T","4","","","","",""
"1994-11-23","1994","11","23","","1.4","","-10.7","","-4.7","","22.7","","0.0","","0.0","","0.0","T","0.0","T","5","","","","",""
"1994-11-24","1994","11","24","","1.1","","-6.8","","-2.9","","20.9","","0.0","","0.0","","0.0","","0.0","","6","","","","",""
"1994-11-25","1994","11","25","","-6.0","","-17.0","","-11.5","","29.5","","0.0","","0.0","","0.0","T","0.0","T","6","","","","",""
"1994-11-26","1994","11","26","","-3.3","","-17.2","","-10.3","","28.3","","0.0","","0.0","","0.6","","0.6","","6","","","","",""
"1994-11-27","1994","11","27","","-0.6","","-10.0","","-5.3","","23.3","","0.0","","0.0","","0.7","","0.7","","6","","","","",""
"1994-11-28","1994","11","28","","-3.5","","-9.5","","-6.5","","24.5","","0.0","","0.0","","0.0","T","0.0","T","7","","","","",""
"1994-11-29","1994","11","29","","-5.4","","-13.2","","-9.3","","27.3","","0.0","","0.0","","0.0","","0.0","","7","","","","",""
"1994-11-30","1994","11","30","","-2.2","","-14.6","","-8.4","","26.4","","0.0","","0.2","","0.0","T","0.2","","6","","","","",""
"1994-12-01","1994","12","01","","6.9","","-2.7","","2.1","","15.9","","0.0","","0.0","","0.0","","0.0","","6","","","","",""
"1994-12-02","1994","12","02","","-1.0","","-7.0","","-4.0","","22.0","","0.0","","0.0","","0.0","T","0.0","T","5","","","","",""
"1994-12-03","1994","12","03","","-0.2","","-12.2","","-6.2","","24.2","","0.0","","0.0","","0.8","","0.8","","1","","","","",""
"1994-12-04","1994","12","04","","-12.2","","-24.3","","-18.3","","36.3","","0.0","","0.0","","6.4","","6.4","","1","","","","",""
"1994-12-05","1994","12","05","","-14.7","","-26.1","","-20.4","","38.4","","0.0","","0.0","","0.0","T","0.0","T","5","","","","",""
"1994-12-06","1994","12","06","","-15.2","","-22.8","","-19.0","","37.0","","0.0","","0.0","","0.0","T","0.0","T","8","","","","",""
"1994-12-07","1994","12","07","","-11.0","","-24.5","","-17.8","","35.8","","0.0","","0.0","","0.6","","0.6","","8","","","","",""
"1994-12-08","1994","12","08","","-7.2","","-12.3","","-9.8","","27.8","","0.0","","0.0","","1.3","","1.3","","8","","","","",""
"1994-12-09","1994","12","09","","-11.8","","-20.9","","-16.4","","34.4","","0.0","","0.0","","0.7","","0.7","","8","","","","",""
"1994-12-10","1994","12","10","","-13.6","","-27.8","","-20.7","","38.7","","0.0","","0.0","","0.5","","0.5","","8","","","","",""
"1994-12-11","1994","12","11","","-11.8","","-26.2","","-19.0","","37.0","","0.0","","0.0","","0.0","","0.0","","8","","","","",""
"1994-12-12","1994","12","12","","-14.2","","-24.0","","-19.1","","37.1","","0.0","","0.0","","0.0","T","0.0","T","8","","","","",""
"1994-12-13","1994","12","13","","-14.2","","-24.6","","-19.4","","37.4","","0.0","","0.0","","0.0","","0.0","","8","","","","",""
"1994-12-14","1994","12","14","","-5.8","","-16.7","","-11.3","","29.3","","0.0","","0.0","","0.0","T","0.0","T","6","","","","",""
"1994-12-15","1994","12","15","","-4.8","","-9.3","","-7.1","","25.1","","0.0","","0.0","","2.1","","2.1","","8","","","","",""
"1994-12-16","1994","12","16","","-7.2","","-15.4","","-11.3","","29.3","","0.0","","0.0","","0.0","T","0.0","T","10","","","","",""
"1994-12-17","1994","12","17","","-8.1","","-21.5","","-14.8","","32.8","","0.0","","0.0","","1.0","","1.0","","10","","","","",""
"1994-12-18","1994","12","18","","-6.6","","-19.9","","-13.3","","31.3","","0.0","","0.0","","0.0","T","0.0","T","10","","","","",""
"1994-12-19","1994","12","19","","-5.3","","-9.9","","-7.6","","25.6","","0.0","","0.0","","0.0","","0.0","","10","","","","",""
"1994-12-20","1994","12","20","","-1.0","","-9.7","","-5.4","","23.4","","0.0","","0.0","","0.0","","0.0","","10","","","","",""
"1994-12-21","1994","12","21","","2.5","","-7.2","","-2.4","","20.4","","0.0","","0.0","","0.0","","0.0","","10","","","","",""
"1994-12-22","1994","12","22","","1.4","","-7.9","","4.7","","13.3","","0.0","","0.0","","0.0","","0.0","","9","","","","",""
"1994-12-23","1994","12","23","","-0.3","","-6.8","","-3.6","","21.6","","0.0","","0.0","","0.0","","0.0","","9","","","","",""
"1994-12-24","1994","12","24","","0.0","","-9.8","","-4.9","","22.9","","0.0","","0.0","","0.0","","0.0","","9","","","","",""
"1994-12-25","1994","12","25","","-0.2","","-12.8","","-6.5","","24.5","","0.0","","0.0","","0.0","T","0.0","T","8","","","","",""
"1994-12-26","1994","12","26","","-8.0","","-14.8","","-11.4","","29.4","","0.0","","0.0","","0.0","T","0.0","T","7","","","","",""
"1994-12-27","1994","12","27","","-3.5","","-10.6","","-7.1","","25.1","","0.0","","0.0","T","0.6","","0.6","","7","","","","",""
"1994-12-28","1994","12","28","","-5.0","","-12.8","","-8.9","","26.9","","0.0","","0.0","","0.0","T","0.0","T","7","","","","",""
"1994-12-29","1994","12","29","","-1.9","","-8.7","","-5.3","","23.3","","0.0","","0.0","","3.4","","3.4","","7","","","","",""
"1994-12-30","1994","12","30","","-2.2","","-12.5","","-7.4","","25.4","","0.0","","0.0","","1.6","","1.6","","7","","","","",""
"1994-12-31","1994","12","31","","-11.8","","-27.5","","-19.7","","37.7","","0.0","","0.0","","0.2","","0.2","","12","","","","",""
